<?xml version="1.0" encoding="UTF-8" standalone="no"?>
<!-- Created with Inkscape (http://www.inkscape.org/) -->

<svg
   xmlns:dc="http://purl.org/dc/elements/1.1/"
   xmlns:cc="http://creativecommons.org/ns#"
   xmlns:rdf="http://www.w3.org/1999/02/22-rdf-syntax-ns#"
   xmlns:svg="http://www.w3.org/2000/svg"
   xmlns="http://www.w3.org/2000/svg"
   xmlns:xlink="http://www.w3.org/1999/xlink"
   xmlns:sodipodi="http://sodipodi.sourceforge.net/DTD/sodipodi-0.dtd"
   xmlns:inkscape="http://www.inkscape.org/namespaces/inkscape"
   width="254mm"
   height="250.61333mm"
   viewBox="0 0 900 887.99997"
   id="svg6849"
   version="1.1"
   inkscape:version="0.91 r13725"
   sodipodi:docname="projects.svg"
   inkscape:export-filename="/home/caner/Dev/presents/mockups/projects.png"
   inkscape:export-xdpi="200"
   inkscape:export-ydpi="200">
  <defs
     id="defs6851">
    <symbol
       viewBox="0 0 24 24"
       id="ic_menu_24px">
      <path
         d="M3 18h18v-2H3v2zm0-5h18v-2H3v2zm0-7v2h18V6H3z"
         id="path15705" />
    </symbol>
    <filter
       id="filter4284"
       inkscape:label="z-depth1"
       style="color-interpolation-filters:sRGB">
      <feFlood
         id="feFlood4286"
         result="flood"
         flood-color="rgb(0,0,0)"
         flood-opacity="0.12" />
      <feComposite
         id="feComposite4288"
         result="composite1"
         operator="in"
         in2="SourceGraphic"
         in="flood" />
      <feGaussianBlur
         id="feGaussianBlur4290"
         result="blur"
         stdDeviation="1.5" />
      <feOffset
         id="feOffset4292"
         result="offset"
         dy="1"
         dx="0" />
      <feComposite
         id="feComposite4294"
         result="fbSourceGraphic"
         operator="over"
         in2="offset"
         in="SourceGraphic" />
      <feColorMatrix
         id="feColorMatrix4332"
         values="0 0 0 -1 0 0 0 0 -1 0 0 0 0 -1 0 0 0 0 1 0"
         in="fbSourceGraphic"
         result="fbSourceGraphicAlpha" />
      <feFlood
         in="fbSourceGraphic"
         result="flood"
         flood-color="rgb(0,0,0)"
         flood-opacity="0.24"
         id="feFlood4334" />
      <feComposite
         result="composite1"
         operator="in"
         in="flood"
         in2="fbSourceGraphic"
         id="feComposite4336" />
      <feGaussianBlur
         result="blur"
         stdDeviation="1"
         id="feGaussianBlur4338" />
      <feOffset
         result="offset"
         dy="1"
         dx="0"
         id="feOffset4340" />
      <feComposite
         result="composite2"
         operator="over"
         in="fbSourceGraphic"
         in2="offset"
         id="feComposite4342" />
      <feBlend
         mode="normal"
         id="feBlend5366"
         in2="composite2" />
    </filter>
    <filter
       id="filter4284-2"
       inkscape:label="z-depth1"
       style="color-interpolation-filters:sRGB">
      <feFlood
         id="feFlood4286-9"
         result="flood"
         flood-color="rgb(0,0,0)"
         flood-opacity="0.12" />
      <feComposite
         id="feComposite4288-1"
         result="composite1"
         operator="in"
         in2="SourceGraphic"
         in="flood" />
      <feGaussianBlur
         id="feGaussianBlur4290-2"
         result="blur"
         stdDeviation="1.5" />
      <feOffset
         id="feOffset4292-7"
         result="offset"
         dy="1"
         dx="0" />
      <feComposite
         id="feComposite4294-0"
         result="fbSourceGraphic"
         operator="over"
         in2="offset"
         in="SourceGraphic" />
      <feColorMatrix
         id="feColorMatrix4332-9"
         values="0 0 0 -1 0 0 0 0 -1 0 0 0 0 -1 0 0 0 0 1 0"
         in="fbSourceGraphic"
         result="fbSourceGraphicAlpha" />
      <feFlood
         in="fbSourceGraphic"
         result="flood"
         flood-color="rgb(0,0,0)"
         flood-opacity="0.24"
         id="feFlood4334-3" />
      <feComposite
         result="composite1"
         operator="in"
         in="flood"
         in2="fbSourceGraphic"
         id="feComposite4336-6" />
      <feGaussianBlur
         result="blur"
         stdDeviation="1"
         id="feGaussianBlur4338-0" />
      <feOffset
         result="offset"
         dy="1"
         dx="0"
         id="feOffset4340-6" />
      <feComposite
         result="composite2"
         operator="over"
         in="fbSourceGraphic"
         in2="offset"
         id="feComposite4342-2" />
      <feBlend
         mode="normal"
         id="feBlend5366-6"
         in2="composite2" />
    </filter>
    <symbol
       viewBox="0 0 24 24"
       id="ic_vpn_key_24px">
      <path
         d="M12.65 10A5.99 5.99 0 0 0 7 6c-3.31 0-6 2.69-6 6s2.69 6 6 6a5.99 5.99 0 0 0 5.65-4H17v4h4v-4h2v-4H12.65zM7 14c-1.1 0-2-.9-2-2s.9-2 2-2 2 .9 2 2-.9 2-2 2z"
         id="path16608" />
    </symbol>
    <filter
       id="filter4284-3"
       inkscape:label="z-depth1"
       style="color-interpolation-filters:sRGB">
      <feFlood
         id="feFlood4286-7"
         result="flood"
         flood-color="rgb(0,0,0)"
         flood-opacity="0.12" />
      <feComposite
         id="feComposite4288-5"
         result="composite1"
         operator="in"
         in2="SourceGraphic"
         in="flood" />
      <feGaussianBlur
         id="feGaussianBlur4290-9"
         result="blur"
         stdDeviation="1.5" />
      <feOffset
         id="feOffset4292-2"
         result="offset"
         dy="1"
         dx="0" />
      <feComposite
         id="feComposite4294-2"
         result="fbSourceGraphic"
         operator="over"
         in2="offset"
         in="SourceGraphic" />
      <feColorMatrix
         id="feColorMatrix4332-8"
         values="0 0 0 -1 0 0 0 0 -1 0 0 0 0 -1 0 0 0 0 1 0"
         in="fbSourceGraphic"
         result="fbSourceGraphicAlpha" />
      <feFlood
         in="fbSourceGraphic"
         result="flood"
         flood-color="rgb(0,0,0)"
         flood-opacity="0.24"
         id="feFlood4334-9" />
      <feComposite
         result="composite1"
         operator="in"
         in="flood"
         in2="fbSourceGraphic"
         id="feComposite4336-7" />
      <feGaussianBlur
         result="blur"
         stdDeviation="1"
         id="feGaussianBlur4338-3" />
      <feOffset
         result="offset"
         dy="1"
         dx="0"
         id="feOffset4340-61" />
      <feComposite
         result="composite2"
         operator="over"
         in="fbSourceGraphic"
         in2="offset"
         id="feComposite4342-29" />
      <feBlend
         mode="normal"
         id="feBlend5366-3"
         in2="composite2" />
    </filter>
  </defs>
  <sodipodi:namedview
     id="base"
     pagecolor="#ffffff"
     bordercolor="#666666"
     borderopacity="1.0"
     inkscape:pageopacity="0.0"
     inkscape:pageshadow="2"
     inkscape:zoom="0.7"
     inkscape:cx="396.1848"
     inkscape:cy="478.8517"
     inkscape:document-units="px"
     inkscape:current-layer="layer1"
     showgrid="false"
     fit-margin-top="0"
     fit-margin-left="0"
     fit-margin-right="0"
     fit-margin-bottom="0"
     showguides="true"
     inkscape:window-width="992"
     inkscape:window-height="1100"
     inkscape:window-x="65"
     inkscape:window-y="24"
     inkscape:window-maximized="0"
     inkscape:guide-bbox="true">
    <sodipodi:guide
       position="79.296975,719.73366"
       orientation="1,0"
       id="guide28281" />
    <sodipodi:guide
       position="222.23356,778.82759"
       orientation="1,0"
       id="guide28283" />
    <sodipodi:guide
       position="352.54324,775.79713"
       orientation="1,0"
       id="guide28285" />
    <sodipodi:guide
       position="608.11183,746.50271"
       orientation="1,0"
       id="guide28287" />
    <sodipodi:guide
       position="749.64286,720.71426"
       orientation="1,0"
       id="guide28289" />
  </sodipodi:namedview>
  <metadata
     id="metadata6854">
    <rdf:RDF>
      <cc:Work
         rdf:about="">
        <dc:format>image/svg+xml</dc:format>
        <dc:type
           rdf:resource="http://purl.org/dc/dcmitype/StillImage" />
        <dc:title></dc:title>
      </cc:Work>
    </rdf:RDF>
  </metadata>
  <g
     inkscape:label="Layer 1"
     inkscape:groupmode="layer"
     id="layer1"
     transform="translate(-265.71432,-170.64792)">
    <rect
       style="display:inline;opacity:1;fill:#1565c0;fill-opacity:1;stroke:none;stroke-width:1;stroke-linecap:round;stroke-miterlimit:4;stroke-dasharray:none;stroke-opacity:1;enable-background:new"
       id="rect20140-6"
       width="900"
       height="0.99988198"
       x="265.71432"
       y="234.64792" />
    <rect
       style="display:inline;opacity:1;fill:#2196f3;fill-opacity:1;stroke:none;stroke-width:1;stroke-linecap:round;stroke-miterlimit:4;stroke-dasharray:none;stroke-opacity:1;enable-background:new"
       id="rect16237-7"
       width="900"
       height="64.000023"
       x="265.71432"
       y="170.64792" />
    <path
       inkscape:connector-curvature="0"
       d="m 1135.7143,199.64793 c 1.105,0 2,-0.895 2,-2 0,-1.105 -0.895,-2 -2,-2 -1.105,0 -2,0.895 -2,2 0,1.105 0.895,2 2,2 z m 0,2 c -1.105,0 -2,0.895 -2,2 0,1.105 0.895,2 2,2 1.105,0 2,-0.895 2,-2 0,-1.105 -0.895,-2 -2,-2 z m 0,6 c -1.105,0 -2,0.895 -2,2 0,1.105 0.895,2 2,2 1.105,0 2,-0.895 2,-2 0,-1.105 -0.895,-2 -2,-2 z"
       style="display:inline;fill:#ffffff;stroke:none;enable-background:new"
       id="path13779" />
    <flowRoot
       xml:space="preserve"
       id="flowRoot27538-6-5"
       style="font-style:normal;font-variant:normal;font-weight:normal;font-stretch:normal;font-size:17.80747032px;line-height:125%;font-family:Roboto;-inkscape-font-specification:Roboto;text-align:start;letter-spacing:0px;word-spacing:0px;writing-mode:lr-tb;text-anchor:start;display:inline;fill:#ffffff;fill-opacity:1;stroke:none;stroke-width:1px;stroke-linecap:butt;stroke-linejoin:miter;stroke-opacity:1;enable-background:new"
       transform="translate(346.10099,191.82863)"><flowRegion
         id="flowRegion27540-7-1"><rect
           id="rect27542-8-4"
           width="282.099"
           height="58.312714"
           x="-0.83251446"
           y="-8.4147177"
           style="fill:#ffffff" /></flowRegion><flowPara
         style="font-style:normal;font-variant:normal;font-weight:500;font-stretch:normal;font-size:20px;line-height:172.00000286%;font-family:Roboto;-inkscape-font-specification:'Roboto Medium';fill:#ffffff;fill-opacity:1"
         id="flowPara20198">AFFAIRES</flowPara></flowRoot>    <rect
       y="235.6479"
       x="265.71432"
       height="823"
       width="900"
       id="rect13663"
       style="display:inline;opacity:1;fill:#eeeeee;fill-opacity:1;stroke:none;stroke-width:1;stroke-linecap:round;stroke-miterlimit:4;stroke-dasharray:none;stroke-opacity:1;enable-background:new" />
    <use
       id="use19636"
       style="fill:#ffffff;stroke:none"
       xlink:href="#ic_menu_24px"
       transform="matrix(0.03603604,0,0,0.03603604,284.92666,186.64793)"
       x="0"
       y="0"
       width="100%"
       height="100%" />
    <g
       transform="translate(-1985.7876,4942.6766)"
       style="display:inline;enable-background:new"
       id="g4375">
      <rect
         rx="2"
         y="-4680.2832"
         x="2283.3503"
         height="763.48859"
         width="837.48682"
         id="rect4365"
         style="opacity:1;fill:#ffffff;fill-opacity:1;stroke:none;stroke-width:1;stroke-linecap:round;stroke-miterlimit:4;stroke-dasharray:none;stroke-opacity:1;filter:url(#filter4284-2)" />
      <g
         transform="translate(-1036,95.9999)"
         style="display:inline"
         id="g5531-4-0">
        <rect
           ry="2"
           rx="2"
           y="-4205.6377"
           x="3392"
           height="36"
           width="80"
           id="rect5505-9-9"
           style="opacity:1;fill:#000000;fill-opacity:0;stroke:none;stroke-width:1;stroke-linecap:round;stroke-miterlimit:4;stroke-dasharray:1, 3;stroke-dashoffset:0;stroke-opacity:0.22352941" />
      </g>
      <g
         id="g5977"
         style="display:inline"
         transform="translate(-948,95.9999)">
        <rect
           style="opacity:1;fill:#000000;fill-opacity:0;stroke:none;stroke-width:1;stroke-linecap:round;stroke-miterlimit:4;stroke-dasharray:1, 3;stroke-dashoffset:0;stroke-opacity:0.22352941"
           id="rect5979"
           width="80"
           height="36"
           x="3392"
           y="-4205.6377"
           rx="2"
           ry="2" />
      </g>
    </g>
    <rect
       style="opacity:1;fill:#ffffff;fill-opacity:1;stroke:none;stroke-width:10;stroke-linecap:round;stroke-linejoin:miter;stroke-miterlimit:4;stroke-dasharray:none;stroke-opacity:1"
       id="rect28450"
       width="837.53137"
       height="56.906982"
       x="297.50003"
       y="378.31595" />
    <g
       style="display:inline;enable-background:new"
       id="g5368"
       transform="translate(-4255.8789,4264.153)">
      <g
         style="filter:url(#filter4284-3)"
         id="g5353">
        <rect
           style="opacity:1;fill:#ffffff;fill-opacity:1;stroke:none;stroke-width:1;stroke-linecap:round;stroke-miterlimit:4;stroke-dasharray:1, 3;stroke-dashoffset:0;stroke-opacity:0.22352941"
           id="rect5351"
           width="509.71429"
           height="48"
           x="4848"
           y="-4085.6377"
           rx="2"
           ry="2" />
        <flowRoot
           xml:space="preserve"
           id="flowRoot4238-2-95"
           style="font-style:normal;font-variant:normal;font-weight:normal;font-stretch:normal;font-size:17.80747032px;line-height:125%;font-family:Roboto;-inkscape-font-specification:Roboto;text-align:start;letter-spacing:0px;word-spacing:0px;writing-mode:lr-tb;text-anchor:start;display:inline;fill:#000000;fill-opacity:0.38039216;stroke:none;stroke-width:1px;stroke-linecap:butt;stroke-linejoin:miter;stroke-opacity:1"
           transform="translate(4912.832,-4068.2871)"><flowRegion
             id="flowRegion4240-7-7"><rect
               id="rect4242-8-8"
               width="282.099"
               height="58.312714"
               x="-0.83251446"
               y="-8.4147177"
               style="fill:#000000;fill-opacity:0.38039216" /></flowRegion><flowPara
             id="flowPara4244-9-3"
             style="font-style:normal;font-variant:normal;font-weight:normal;font-stretch:normal;font-size:14px;line-height:172.00000286%;font-family:Roboto;-inkscape-font-specification:Roboto;fill:#000000;fill-opacity:0.38039216">Rechercher affaires &amp; attachements</flowPara></flowRoot>        <g
           id="g5331"
           transform="translate(4864,-4073.6378)">
          <path
             id="path5321"
             d="m 15.5,14 -0.79,0 -0.28,-0.27 C 15.41,12.59 16,11.11 16,9.5 16,5.91 13.09,3 9.5,3 5.91,3 3,5.91 3,9.5 3,13.09 5.91,16 9.5,16 c 1.61,0 3.09,-0.59 4.23,-1.57 L 14,14.71 14,15.5 19,20.49 20.49,19 15.5,14 Z m -6,0 C 7.01,14 5,11.99 5,9.5 5,7.01 7.01,5 9.5,5 11.99,5 14,7.01 14,9.5 14,11.99 11.99,14 9.5,14 Z"
             inkscape:connector-curvature="0"
             style="fill:#000000;fill-opacity:0.54117647" />
          <path
             id="path5323"
             d="M 0,0 24,0 24,24 0,24 Z"
             inkscape:connector-curvature="0"
             style="fill:none" />
        </g>
        <g
           id="g5347"
           transform="translate(5152,-4072.6378)">
          <path
             id="path5337"
             d="m 186,14 c 1.66,0 2.99,-1.34 2.99,-3 L 189,5 c 0,-1.66 -1.34,-3 -3,-3 -1.66,0 -3,1.34 -3,3 l 0,6 c 0,1.66 1.34,3 3,3 z m 5.3,-3 c 0,3 -2.54,5.1 -5.3,5.1 -2.76,0 -5.3,-2.1 -5.3,-5.1 l -1.7,0 c 0,3.41 2.72,6.23 6,6.72 l 0,3.28 2,0 0,-3.28 c 3.28,-0.48 6,-3.3 6,-6.72 l -1.7,0 z"
             inkscape:connector-curvature="0"
             style="fill:#000000;fill-opacity:0.54117647" />
          <path
             id="path5339"
             d="M 0,0 24,0 24,24 0,24 Z"
             inkscape:connector-curvature="0"
             style="fill:none" />
        </g>
      </g>
    </g>
    <rect
       style="opacity:1;fill:#ffffff;fill-opacity:1;stroke:none;stroke-width:10;stroke-linecap:round;stroke-linejoin:miter;stroke-miterlimit:4;stroke-dasharray:none;stroke-opacity:1"
       id="rect28450-7"
       width="837.53137"
       height="56.906982"
       x="297.47665"
       y="262.33731"
       ry="2.0089417" />
    <flowRoot
       xml:space="preserve"
       id="flowRoot28184"
       style="font-style:normal;font-variant:normal;font-weight:normal;font-stretch:normal;font-size:17.80747032px;line-height:125%;font-family:Roboto;-inkscape-font-specification:Roboto;text-align:start;letter-spacing:0px;word-spacing:0px;writing-mode:lr-tb;text-anchor:start;display:inline;fill:#000000;fill-opacity:0.54117647;stroke:none;stroke-width:1px;stroke-linecap:butt;stroke-linejoin:miter;stroke-opacity:1;enable-background:new"
       transform="translate(344.9489,288.50516)"><flowRegion
         id="flowRegion28186"><rect
           id="rect28188"
           width="282.099"
           height="58.312714"
           x="-0.83251446"
           y="-8.4147177"
           style="fill:#000000;fill-opacity:0.54117647" /></flowRegion><flowPara
         style="font-style:normal;font-variant:normal;font-weight:normal;font-stretch:normal;font-size:12px;line-height:170.00000477%;font-family:Roboto;-inkscape-font-specification:Roboto;fill:#000000;fill-opacity:0.54117647"
         id="flowPara28194">Réference Présents</flowPara></flowRoot>    <flowRoot
       xml:space="preserve"
       id="flowRoot28184-1"
       style="font-style:normal;font-variant:normal;font-weight:normal;font-stretch:normal;font-size:17.80747032px;line-height:125%;font-family:Roboto;-inkscape-font-specification:Roboto;text-align:start;letter-spacing:0px;word-spacing:0px;writing-mode:lr-tb;text-anchor:start;display:inline;fill:#000000;fill-opacity:0.54117647;stroke:none;stroke-width:1px;stroke-linecap:butt;stroke-linejoin:miter;stroke-opacity:1;enable-background:new"
       transform="translate(487.78713,288.44364)"><flowRegion
         id="flowRegion28186-9"><rect
           id="rect28188-4"
           width="282.099"
           height="58.312714"
           x="-0.83251446"
           y="-8.4147177"
           style="fill:#000000;fill-opacity:0.54117647" /></flowRegion><flowPara
         style="font-style:normal;font-variant:normal;font-weight:normal;font-stretch:normal;font-size:12px;line-height:170.00000477%;font-family:Roboto;-inkscape-font-specification:Roboto;fill:#000000;fill-opacity:0.54117647"
         id="flowPara28194-7">Numéro OS</flowPara></flowRoot>    <flowRoot
       xml:space="preserve"
       id="flowRoot28184-1-8"
       style="font-style:normal;font-variant:normal;font-weight:normal;font-stretch:normal;font-size:17.80747032px;line-height:125%;font-family:Roboto;-inkscape-font-specification:Roboto;text-align:start;letter-spacing:0px;word-spacing:0px;writing-mode:lr-tb;text-anchor:start;display:inline;fill:#000000;fill-opacity:0.54117647;stroke:none;stroke-width:1px;stroke-linecap:butt;stroke-linejoin:miter;stroke-opacity:1;enable-background:new"
       transform="translate(618.65586,288.50516)"><flowRegion
         id="flowRegion28186-9-4"><rect
           id="rect28188-4-5"
           width="282.099"
           height="58.312714"
           x="-0.83251446"
           y="-8.4147177"
           style="fill:#000000;fill-opacity:0.54117647" /></flowRegion><flowPara
         style="font-style:normal;font-variant:normal;font-weight:normal;font-stretch:normal;font-size:12px;line-height:170.00000477%;font-family:Roboto;-inkscape-font-specification:Roboto;fill:#000000;fill-opacity:0.54117647"
         id="flowPara28194-7-0">Libellé de l'affaire</flowPara></flowRoot>    <flowRoot
       xml:space="preserve"
       id="flowRoot28184-1-8-3"
       style="font-style:normal;font-variant:normal;font-weight:normal;font-stretch:normal;font-size:17.80747032px;line-height:125%;font-family:Roboto;-inkscape-font-specification:Roboto;text-align:start;letter-spacing:0px;word-spacing:0px;writing-mode:lr-tb;text-anchor:start;display:inline;fill:#000000;fill-opacity:0.54117647;stroke:none;stroke-width:1px;stroke-linecap:butt;stroke-linejoin:miter;stroke-opacity:1;enable-background:new"
       transform="translate(874.68826,287.28348)"><flowRegion
         id="flowRegion28186-9-4-6"><rect
           id="rect28188-4-5-1"
           width="282.099"
           height="58.312714"
           x="-0.83251446"
           y="-8.4147177"
           style="fill:#000000;fill-opacity:0.54117647" /></flowRegion><flowPara
         style="font-style:normal;font-variant:normal;font-weight:normal;font-stretch:normal;font-size:12px;line-height:170.00000477%;font-family:Roboto;-inkscape-font-specification:Roboto;fill:#000000;fill-opacity:0.54117647"
         id="flowPara28194-7-0-0">Correspondant</flowPara></flowRoot>    <flowRoot
       xml:space="preserve"
       id="flowRoot28184-1-8-3-6"
       style="font-style:normal;font-variant:normal;font-weight:normal;font-stretch:normal;font-size:17.80747032px;line-height:125%;font-family:Roboto;-inkscape-font-specification:Roboto;text-align:start;letter-spacing:0px;word-spacing:0px;writing-mode:lr-tb;text-anchor:start;display:inline;fill:#000000;fill-opacity:0.54117647;stroke:none;stroke-width:1px;stroke-linecap:butt;stroke-linejoin:miter;stroke-opacity:1;enable-background:new"
       transform="translate(1015.4621,288.44364)"><flowRegion
         id="flowRegion28186-9-4-6-3"><rect
           id="rect28188-4-5-1-2"
           width="282.099"
           height="58.312714"
           x="-0.83251446"
           y="-8.4147177"
           style="fill:#000000;fill-opacity:0.54117647" /></flowRegion><flowPara
         style="font-style:normal;font-variant:normal;font-weight:normal;font-stretch:normal;font-size:12px;line-height:170.00000477%;font-family:Roboto;-inkscape-font-specification:Roboto;fill:#000000;fill-opacity:0.54117647"
         id="flowPara28194-7-0-0-0">Coordinnateur</flowPara></flowRoot>    <rect
       style="display:inline;opacity:1;fill:#000000;fill-opacity:0.11764706;stroke:none;stroke-width:1;stroke-linecap:round;stroke-miterlimit:4;stroke-dasharray:none;stroke-opacity:1;enable-background:new"
       id="rect13518"
       width="837.71429"
       height="0.99990845"
       x="297.42859"
       y="319.14798" />
    <rect
       style="opacity:1;fill:#f5f5f5;fill-opacity:1;stroke:none;stroke-width:10;stroke-linecap:round;stroke-linejoin:miter;stroke-miterlimit:4;stroke-dasharray:none;stroke-opacity:1"
       id="rect28450-7-1"
       width="837.53137"
       height="56.906982"
       x="297.44864"
       y="320.1944"
       ry="0" />
    <flowRoot
       transform="translate(345.15982,344.77859)"
       style="font-style:normal;font-variant:normal;font-weight:normal;font-stretch:normal;font-size:17.80747032px;line-height:125%;font-family:Roboto;-inkscape-font-specification:Roboto;text-align:start;letter-spacing:0px;word-spacing:0px;writing-mode:lr-tb;text-anchor:start;display:inline;fill:#000000;fill-opacity:0.87058824;stroke:none;stroke-width:1px;stroke-linecap:butt;stroke-linejoin:miter;stroke-opacity:1;enable-background:new"
       id="flowRoot27622-8"
       xml:space="preserve"><flowRegion
         id="flowRegion27624-4"><rect
           y="-8.4147177"
           x="-0.83251446"
           height="58.312714"
           width="282.099"
           id="rect27626-4" /></flowRegion><flowPara
         style="font-style:normal;font-variant:normal;font-weight:normal;font-stretch:normal;font-size:12px;line-height:172.00000286%;font-family:Roboto;-inkscape-font-specification:Roboto;fill:#000000;fill-opacity:0.87058824"
         id="flowPara27628-1">Attente retour 1045</flowPara></flowRoot>    <flowRoot
       transform="translate(488.90782,344.96201)"
       style="font-style:normal;font-variant:normal;font-weight:normal;font-stretch:normal;font-size:17.80747032px;line-height:125%;font-family:Roboto;-inkscape-font-specification:Roboto;text-align:start;letter-spacing:0px;word-spacing:0px;writing-mode:lr-tb;text-anchor:start;display:inline;fill:#000000;fill-opacity:0.87058824;stroke:none;stroke-width:1px;stroke-linecap:butt;stroke-linejoin:miter;stroke-opacity:1;enable-background:new"
       id="flowRoot27622-8-7"
       xml:space="preserve"><flowRegion
         id="flowRegion27624-4-8"><rect
           y="-8.4147177"
           x="-0.83251446"
           height="58.312714"
           width="282.099"
           id="rect27626-4-6" /></flowRegion><flowPara
         style="font-style:normal;font-variant:normal;font-weight:normal;font-stretch:normal;font-size:12px;line-height:172.00000286%;font-family:Roboto;-inkscape-font-specification:Roboto;fill:#000000;fill-opacity:0.87058824"
         id="flowPara27628-1-8">Attente retour 1045</flowPara></flowRoot>    <flowRoot
       transform="translate(618.85477,337.05901)"
       style="font-style:normal;font-variant:normal;font-weight:normal;font-stretch:normal;font-size:17.80747032px;line-height:125%;font-family:Roboto;-inkscape-font-specification:Roboto;text-align:start;letter-spacing:0px;word-spacing:0px;writing-mode:lr-tb;text-anchor:start;display:inline;fill:#000000;fill-opacity:0.87058824;stroke:none;stroke-width:1px;stroke-linecap:butt;stroke-linejoin:miter;stroke-opacity:1;enable-background:new"
       id="flowRoot27622-8-8"
       xml:space="preserve"><flowRegion
         id="flowRegion27624-4-4"><rect
           y="-8.4147177"
           x="-0.83251446"
           height="55.282253"
           width="250.78427"
           id="rect27626-4-3" /></flowRegion><flowPara
         style="font-style:normal;font-variant:normal;font-weight:normal;font-stretch:normal;font-size:12px;line-height:172.00000286%;font-family:Roboto;-inkscape-font-specification:Roboto;fill:#000000;fill-opacity:0.87058824"
         id="flowPara27628-1-1">VDS BAT : TRAVAUX D'ETANCHEITE SUR LA TOITURE DE LA TOITURE DE LA TRIBUNE</flowPara></flowRoot>    <flowRoot
       transform="translate(874.67065,345.059)"
       style="font-style:normal;font-variant:normal;font-weight:normal;font-stretch:normal;font-size:17.80747032px;line-height:125%;font-family:Roboto;-inkscape-font-specification:Roboto;text-align:start;letter-spacing:0px;word-spacing:0px;writing-mode:lr-tb;text-anchor:start;display:inline;fill:#000000;fill-opacity:0.87058824;stroke:none;stroke-width:1px;stroke-linecap:butt;stroke-linejoin:miter;stroke-opacity:1;enable-background:new"
       id="flowRoot27622-8-7-6"
       xml:space="preserve"><flowRegion
         id="flowRegion27624-4-8-8"><rect
           y="-8.4147177"
           x="-0.83251446"
           height="58.312714"
           width="282.099"
           id="rect27626-4-6-9" /></flowRegion><flowPara
         style="font-style:normal;font-variant:normal;font-weight:normal;font-stretch:normal;font-size:12px;line-height:172.00000286%;font-family:Roboto;-inkscape-font-specification:Roboto;fill:#000000;fill-opacity:0.87058824"
         id="flowPara27628-1-8-2">Non renseigné</flowPara></flowRoot>    <flowRoot
       transform="translate(1015.3849,344.84472)"
       style="font-style:normal;font-variant:normal;font-weight:normal;font-stretch:normal;font-size:17.80747032px;line-height:125%;font-family:Roboto;-inkscape-font-specification:Roboto;text-align:start;letter-spacing:0px;word-spacing:0px;writing-mode:lr-tb;text-anchor:start;display:inline;fill:#000000;fill-opacity:0.87058824;stroke:none;stroke-width:1px;stroke-linecap:butt;stroke-linejoin:miter;stroke-opacity:1;enable-background:new"
       id="flowRoot27622-8-7-66"
       xml:space="preserve"><flowRegion
         id="flowRegion27624-4-8-4"><rect
           y="-8.4147177"
           x="-0.83251446"
           height="58.312714"
           width="282.099"
           id="rect27626-4-6-95" /></flowRegion><flowPara
         style="font-style:normal;font-variant:normal;font-weight:normal;font-stretch:normal;font-size:12px;line-height:172.00000286%;font-family:Roboto;-inkscape-font-specification:Roboto;fill:#000000;fill-opacity:0.87058824"
         id="flowPara27628-1-8-0">Non renseigné</flowPara></flowRoot>    <rect
       style="display:inline;opacity:1;fill:#000000;fill-opacity:0.11764706;stroke:none;stroke-width:1;stroke-linecap:round;stroke-miterlimit:4;stroke-dasharray:none;stroke-opacity:1;enable-background:new"
       id="rect13518-0-4"
       width="837.26794"
       height="0.99990845"
       x="297.85718"
       y="435.33298" />
    <flowRoot
       transform="translate(345.44555,401.18509)"
       style="font-style:normal;font-variant:normal;font-weight:normal;font-stretch:normal;font-size:17.80747032px;line-height:125%;font-family:Roboto;-inkscape-font-specification:Roboto;text-align:start;letter-spacing:0px;word-spacing:0px;writing-mode:lr-tb;text-anchor:start;display:inline;fill:#000000;fill-opacity:0.87058824;stroke:none;stroke-width:1px;stroke-linecap:butt;stroke-linejoin:miter;stroke-opacity:1;enable-background:new"
       id="flowRoot27622-8-87"
       xml:space="preserve"><flowRegion
         id="flowRegion27624-4-1"><rect
           y="-8.4147177"
           x="-0.83251446"
           height="58.312714"
           width="282.099"
           id="rect27626-4-7" /></flowRegion><flowPara
         style="font-style:normal;font-variant:normal;font-weight:normal;font-stretch:normal;font-size:12px;line-height:172.00000286%;font-family:Roboto;-inkscape-font-specification:Roboto;fill:#000000;fill-opacity:0.87058824"
         id="flowPara27628-1-2">Attente retour 2</flowPara></flowRoot>    <flowRoot
       transform="translate(489.19355,401.36851)"
       style="font-style:normal;font-variant:normal;font-weight:normal;font-stretch:normal;font-size:17.80747032px;line-height:125%;font-family:Roboto;-inkscape-font-specification:Roboto;text-align:start;letter-spacing:0px;word-spacing:0px;writing-mode:lr-tb;text-anchor:start;display:inline;fill:#000000;fill-opacity:0.87058824;stroke:none;stroke-width:1px;stroke-linecap:butt;stroke-linejoin:miter;stroke-opacity:1;enable-background:new"
       id="flowRoot27622-8-7-7"
       xml:space="preserve"><flowRegion
         id="flowRegion27624-4-8-2"><rect
           y="-8.4147177"
           x="-0.83251446"
           height="58.312714"
           width="282.099"
           id="rect27626-4-6-2" /></flowRegion><flowPara
         style="font-style:normal;font-variant:normal;font-weight:normal;font-stretch:normal;font-size:12px;line-height:172.00000286%;font-family:Roboto;-inkscape-font-specification:Roboto;fill:#000000;fill-opacity:0.87058824"
         id="flowPara27628-1-8-6">Attente retour 2</flowPara></flowRoot>    <flowRoot
       transform="translate(619.1405,393.46551)"
       style="font-style:normal;font-variant:normal;font-weight:normal;font-stretch:normal;font-size:17.80747032px;line-height:125%;font-family:Roboto;-inkscape-font-specification:Roboto;text-align:start;letter-spacing:0px;word-spacing:0px;writing-mode:lr-tb;text-anchor:start;display:inline;fill:#000000;fill-opacity:0.87058824;stroke:none;stroke-width:1px;stroke-linecap:butt;stroke-linejoin:miter;stroke-opacity:1;enable-background:new"
       id="flowRoot27622-8-8-1"
       xml:space="preserve"><flowRegion
         id="flowRegion27624-4-4-0"><rect
           y="-8.4147177"
           x="-0.83251446"
           height="55.282253"
           width="250.78427"
           id="rect27626-4-3-6" /></flowRegion><flowPara
         style="font-style:normal;font-variant:normal;font-weight:normal;font-stretch:normal;font-size:12px;line-height:172.00000286%;font-family:Roboto;-inkscape-font-specification:Roboto;fill:#000000;fill-opacity:0.87058824"
         id="flowPara27628-1-1-1">VDS GC : SECTEUR SOLIGNAC LYAUTEY - COMPLÉMENT MISSION</flowPara></flowRoot>    <flowRoot
       transform="translate(874.95638,401.4655)"
       style="font-style:normal;font-variant:normal;font-weight:normal;font-stretch:normal;font-size:17.80747032px;line-height:125%;font-family:Roboto;-inkscape-font-specification:Roboto;text-align:start;letter-spacing:0px;word-spacing:0px;writing-mode:lr-tb;text-anchor:start;display:inline;fill:#000000;fill-opacity:0.87058824;stroke:none;stroke-width:1px;stroke-linecap:butt;stroke-linejoin:miter;stroke-opacity:1;enable-background:new"
       id="flowRoot27622-8-7-6-5"
       xml:space="preserve"><flowRegion
         id="flowRegion27624-4-8-8-9"><rect
           y="-8.4147177"
           x="-0.83251446"
           height="58.312714"
           width="282.099"
           id="rect27626-4-6-9-4" /></flowRegion><flowPara
         style="font-style:normal;font-variant:normal;font-weight:normal;font-stretch:normal;font-size:12px;line-height:172.00000286%;font-family:Roboto;-inkscape-font-specification:Roboto;fill:#000000;fill-opacity:0.87058824"
         id="flowPara27628-1-8-2-9">GRASSER Brigitte</flowPara></flowRoot>    <flowRoot
       transform="translate(1015.6706,401.25122)"
       style="font-style:normal;font-variant:normal;font-weight:normal;font-stretch:normal;font-size:17.80747032px;line-height:125%;font-family:Roboto;-inkscape-font-specification:Roboto;text-align:start;letter-spacing:0px;word-spacing:0px;writing-mode:lr-tb;text-anchor:start;display:inline;fill:#000000;fill-opacity:0.87058824;stroke:none;stroke-width:1px;stroke-linecap:butt;stroke-linejoin:miter;stroke-opacity:1;enable-background:new"
       id="flowRoot27622-8-7-66-0"
       xml:space="preserve"><flowRegion
         id="flowRegion27624-4-8-4-9"><rect
           y="-8.4147177"
           x="-0.83251446"
           height="58.312714"
           width="282.099"
           id="rect27626-4-6-95-1" /></flowRegion><flowPara
         style="font-style:normal;font-variant:normal;font-weight:normal;font-stretch:normal;font-size:12px;line-height:172.00000286%;font-family:Roboto;-inkscape-font-specification:Roboto;fill:#000000;fill-opacity:0.87058824"
         id="flowPara27628-1-8-0-7">DIDIER Jean-Louis</flowPara></flowRoot>    <rect
       style="display:inline;opacity:1;fill:#000000;fill-opacity:0.11764706;stroke:none;stroke-width:1;stroke-linecap:round;stroke-miterlimit:4;stroke-dasharray:none;stroke-opacity:1;enable-background:new"
       id="rect13518-1"
       width="837.71429"
       height="0.99990845"
       x="297.50519"
       y="377.21582" />
    <rect
       style="opacity:1;fill:#ffffff;fill-opacity:1;stroke:none;stroke-width:10;stroke-linecap:round;stroke-linejoin:miter;stroke-miterlimit:4;stroke-dasharray:none;stroke-opacity:1"
       id="rect28450-5"
       width="837.53137"
       height="56.906982"
       x="297.46463"
       y="494.51401" />
    <rect
       style="opacity:1;fill:#f5f5f5;fill-opacity:1;stroke:none;stroke-width:10;stroke-linecap:round;stroke-linejoin:miter;stroke-miterlimit:4;stroke-dasharray:none;stroke-opacity:1"
       id="rect28450-7-1-9"
       width="837.53137"
       height="56.906982"
       x="297.41324"
       y="436.39246"
       ry="0" />
    <flowRoot
       transform="translate(345.12436,460.97665)"
       style="font-style:normal;font-variant:normal;font-weight:normal;font-stretch:normal;font-size:17.80747032px;line-height:125%;font-family:Roboto;-inkscape-font-specification:Roboto;text-align:start;letter-spacing:0px;word-spacing:0px;writing-mode:lr-tb;text-anchor:start;display:inline;fill:#000000;fill-opacity:0.87058824;stroke:none;stroke-width:1px;stroke-linecap:butt;stroke-linejoin:miter;stroke-opacity:1;enable-background:new"
       id="flowRoot27622-8-77"
       xml:space="preserve"><flowRegion
         id="flowRegion27624-4-6"><rect
           y="-8.4147177"
           x="-0.83251446"
           height="58.312714"
           width="282.099"
           id="rect27626-4-73" /></flowRegion><flowPara
         style="font-style:normal;font-variant:normal;font-weight:normal;font-stretch:normal;font-size:12px;line-height:172.00000286%;font-family:Roboto;-inkscape-font-specification:Roboto;fill:#000000;fill-opacity:0.87058824"
         id="flowPara27628-1-6">en attente</flowPara></flowRoot>    <flowRoot
       transform="translate(488.87236,461.16007)"
       style="font-style:normal;font-variant:normal;font-weight:normal;font-stretch:normal;font-size:17.80747032px;line-height:125%;font-family:Roboto;-inkscape-font-specification:Roboto;text-align:start;letter-spacing:0px;word-spacing:0px;writing-mode:lr-tb;text-anchor:start;display:inline;fill:#000000;fill-opacity:0.87058824;stroke:none;stroke-width:1px;stroke-linecap:butt;stroke-linejoin:miter;stroke-opacity:1;enable-background:new"
       id="flowRoot27622-8-7-5"
       xml:space="preserve"><flowRegion
         id="flowRegion27624-4-8-6"><rect
           y="-8.4147177"
           x="-0.83251446"
           height="58.312714"
           width="282.099"
           id="rect27626-4-6-3" /></flowRegion><flowPara
         style="font-style:normal;font-variant:normal;font-weight:normal;font-stretch:normal;font-size:12px;line-height:172.00000286%;font-family:Roboto;-inkscape-font-specification:Roboto;fill:#000000;fill-opacity:0.87058824"
         id="flowPara27628-1-8-9">en attente</flowPara></flowRoot>    <flowRoot
       transform="translate(618.81931,453.25707)"
       style="font-style:normal;font-variant:normal;font-weight:normal;font-stretch:normal;font-size:17.80747032px;line-height:125%;font-family:Roboto;-inkscape-font-specification:Roboto;text-align:start;letter-spacing:0px;word-spacing:0px;writing-mode:lr-tb;text-anchor:start;display:inline;fill:#000000;fill-opacity:0.87058824;stroke:none;stroke-width:1px;stroke-linecap:butt;stroke-linejoin:miter;stroke-opacity:1;enable-background:new"
       id="flowRoot27622-8-8-4"
       xml:space="preserve"><flowRegion
         id="flowRegion27624-4-4-8"><rect
           y="-8.4147177"
           x="-0.83251446"
           height="55.282253"
           width="250.78427"
           id="rect27626-4-3-1" /></flowRegion><flowPara
         style="font-style:normal;font-variant:normal;font-weight:normal;font-stretch:normal;font-size:12px;line-height:172.00000286%;font-family:Roboto;-inkscape-font-specification:Roboto;fill:#000000;fill-opacity:0.87058824"
         id="flowPara27628-1-1-2">LINGOLSHEIM PRU CITÉ DES HIRONDELLES</flowPara></flowRoot>    <flowRoot
       transform="translate(874.63519,461.25706)"
       style="font-style:normal;font-variant:normal;font-weight:normal;font-stretch:normal;font-size:17.80747032px;line-height:125%;font-family:Roboto;-inkscape-font-specification:Roboto;text-align:start;letter-spacing:0px;word-spacing:0px;writing-mode:lr-tb;text-anchor:start;display:inline;fill:#000000;fill-opacity:0.87058824;stroke:none;stroke-width:1px;stroke-linecap:butt;stroke-linejoin:miter;stroke-opacity:1;enable-background:new"
       id="flowRoot27622-8-7-6-9"
       xml:space="preserve"><flowRegion
         id="flowRegion27624-4-8-8-3"><rect
           y="-8.4147177"
           x="-0.83251446"
           height="58.312714"
           width="282.099"
           id="rect27626-4-6-9-9" /></flowRegion><flowPara
         style="font-style:normal;font-variant:normal;font-weight:normal;font-stretch:normal;font-size:12px;line-height:172.00000286%;font-family:Roboto;-inkscape-font-specification:Roboto;fill:#000000;fill-opacity:0.87058824"
         id="flowPara27628-1-8-2-0">BRABANT Nathalie</flowPara></flowRoot>    <flowRoot
       transform="translate(1015.3498,461.04278)"
       style="font-style:normal;font-variant:normal;font-weight:normal;font-stretch:normal;font-size:17.80747032px;line-height:125%;font-family:Roboto;-inkscape-font-specification:Roboto;text-align:start;letter-spacing:0px;word-spacing:0px;writing-mode:lr-tb;text-anchor:start;display:inline;fill:#000000;fill-opacity:0.87058824;stroke:none;stroke-width:1px;stroke-linecap:butt;stroke-linejoin:miter;stroke-opacity:1;enable-background:new"
       id="flowRoot27622-8-7-66-8"
       xml:space="preserve"><flowRegion
         id="flowRegion27624-4-8-4-8"><rect
           y="-8.4147177"
           x="-0.83251446"
           height="58.312714"
           width="282.099"
           id="rect27626-4-6-95-5" /></flowRegion><flowPara
         style="font-style:normal;font-variant:normal;font-weight:normal;font-stretch:normal;font-size:12px;line-height:172.00000286%;font-family:Roboto;-inkscape-font-specification:Roboto;fill:#000000;fill-opacity:0.87058824"
         id="flowPara27628-1-8-0-0">LUDWIG Alain</flowPara></flowRoot>    <rect
       style="display:inline;opacity:1;fill:#000000;fill-opacity:0.11764706;stroke:none;stroke-width:1;stroke-linecap:round;stroke-miterlimit:4;stroke-dasharray:none;stroke-opacity:1;enable-background:new"
       id="rect13518-0-4-9"
       width="837.26794"
       height="0.99990845"
       x="297.82178"
       y="551.53094" />
    <flowRoot
       transform="translate(345.41009,517.38315)"
       style="font-style:normal;font-variant:normal;font-weight:normal;font-stretch:normal;font-size:17.80747032px;line-height:125%;font-family:Roboto;-inkscape-font-specification:Roboto;text-align:start;letter-spacing:0px;word-spacing:0px;writing-mode:lr-tb;text-anchor:start;display:inline;fill:#000000;fill-opacity:0.87058824;stroke:none;stroke-width:1px;stroke-linecap:butt;stroke-linejoin:miter;stroke-opacity:1;enable-background:new"
       id="flowRoot27622-8-87-6"
       xml:space="preserve"><flowRegion
         id="flowRegion27624-4-1-3"><rect
           y="-8.4147177"
           x="-0.83251446"
           height="58.312714"
           width="282.099"
           id="rect27626-4-7-8" /></flowRegion><flowPara
         style="font-style:normal;font-variant:normal;font-weight:normal;font-stretch:normal;font-size:12px;line-height:172.00000286%;font-family:Roboto;-inkscape-font-specification:Roboto;fill:#000000;fill-opacity:0.87058824"
         id="flowPara27628-1-2-5">SR315L AL</flowPara></flowRoot>    <flowRoot
       transform="translate(489.15809,517.56657)"
       style="font-style:normal;font-variant:normal;font-weight:normal;font-stretch:normal;font-size:17.80747032px;line-height:125%;font-family:Roboto;-inkscape-font-specification:Roboto;text-align:start;letter-spacing:0px;word-spacing:0px;writing-mode:lr-tb;text-anchor:start;display:inline;fill:#000000;fill-opacity:0.87058824;stroke:none;stroke-width:1px;stroke-linecap:butt;stroke-linejoin:miter;stroke-opacity:1;enable-background:new"
       id="flowRoot27622-8-7-7-6"
       xml:space="preserve"><flowRegion
         id="flowRegion27624-4-8-2-1"><rect
           y="-8.4147177"
           x="-0.83251446"
           height="58.312714"
           width="282.099"
           id="rect27626-4-6-2-1" /></flowRegion><flowPara
         style="font-style:normal;font-variant:normal;font-weight:normal;font-stretch:normal;font-size:12px;line-height:172.00000286%;font-family:Roboto;-inkscape-font-specification:Roboto;fill:#000000;fill-opacity:0.87058824"
         id="flowPara27628-1-8-6-5">2007-24130</flowPara></flowRoot>    <flowRoot
       transform="translate(619.10504,509.66357)"
       style="font-style:normal;font-variant:normal;font-weight:normal;font-stretch:normal;font-size:17.80747032px;line-height:125%;font-family:Roboto;-inkscape-font-specification:Roboto;text-align:start;letter-spacing:0px;word-spacing:0px;writing-mode:lr-tb;text-anchor:start;display:inline;fill:#000000;fill-opacity:0.87058824;stroke:none;stroke-width:1px;stroke-linecap:butt;stroke-linejoin:miter;stroke-opacity:1;enable-background:new"
       id="flowRoot27622-8-8-1-9"
       xml:space="preserve"><flowRegion
         id="flowRegion27624-4-4-0-8"><rect
           y="-8.4147177"
           x="-0.83251446"
           height="55.282253"
           width="250.78427"
           id="rect27626-4-3-6-4" /></flowRegion><flowPara
         style="font-style:normal;font-variant:normal;font-weight:normal;font-stretch:normal;font-size:12px;line-height:172.00000286%;font-family:Roboto;-inkscape-font-specification:Roboto;fill:#000000;fill-opacity:0.87058824"
         id="flowPara27628-1-1-1-8">STRASBOURG : RÉAMÉNAGEMENT DE LA RUE DE LA GANZAU</flowPara></flowRoot>    <flowRoot
       transform="translate(874.92092,517.66356)"
       style="font-style:normal;font-variant:normal;font-weight:normal;font-stretch:normal;font-size:17.80747032px;line-height:125%;font-family:Roboto;-inkscape-font-specification:Roboto;text-align:start;letter-spacing:0px;word-spacing:0px;writing-mode:lr-tb;text-anchor:start;display:inline;fill:#000000;fill-opacity:0.87058824;stroke:none;stroke-width:1px;stroke-linecap:butt;stroke-linejoin:miter;stroke-opacity:1;enable-background:new"
       id="flowRoot27622-8-7-6-5-1"
       xml:space="preserve"><flowRegion
         id="flowRegion27624-4-8-8-9-0"><rect
           y="-8.4147177"
           x="-0.83251446"
           height="58.312714"
           width="282.099"
           id="rect27626-4-6-9-4-3" /></flowRegion><flowPara
         style="font-style:normal;font-variant:normal;font-weight:normal;font-stretch:normal;font-size:12px;line-height:172.00000286%;font-family:Roboto;-inkscape-font-specification:Roboto;fill:#000000;fill-opacity:0.87058824"
         id="flowPara27628-1-8-2-9-0">SAENGER Roland</flowPara></flowRoot>    <flowRoot
       transform="translate(1015.6355,517.44928)"
       style="font-style:normal;font-variant:normal;font-weight:normal;font-stretch:normal;font-size:17.80747032px;line-height:125%;font-family:Roboto;-inkscape-font-specification:Roboto;text-align:start;letter-spacing:0px;word-spacing:0px;writing-mode:lr-tb;text-anchor:start;display:inline;fill:#000000;fill-opacity:0.87058824;stroke:none;stroke-width:1px;stroke-linecap:butt;stroke-linejoin:miter;stroke-opacity:1;enable-background:new"
       id="flowRoot27622-8-7-66-0-4"
       xml:space="preserve"><flowRegion
         id="flowRegion27624-4-8-4-9-4"><rect
           y="-8.4147177"
           x="-0.83251446"
           height="58.312714"
           width="282.099"
           id="rect27626-4-6-95-1-4" /></flowRegion><flowPara
         style="font-style:normal;font-variant:normal;font-weight:normal;font-stretch:normal;font-size:12px;line-height:172.00000286%;font-family:Roboto;-inkscape-font-specification:Roboto;fill:#000000;fill-opacity:0.87058824"
         id="flowPara27628-1-8-0-7-4">DIEBOLD Julien</flowPara></flowRoot>    <rect
       style="display:inline;opacity:1;fill:#000000;fill-opacity:0.11764706;stroke:none;stroke-width:1;stroke-linecap:round;stroke-miterlimit:4;stroke-dasharray:none;stroke-opacity:1;enable-background:new"
       id="rect13518-1-7"
       width="837.71429"
       height="0.99990845"
       x="297.46979"
       y="493.41388" />
    <rect
       style="opacity:1;fill:#ffffff;fill-opacity:1;stroke:none;stroke-width:10;stroke-linecap:round;stroke-linejoin:miter;stroke-miterlimit:4;stroke-dasharray:none;stroke-opacity:1"
       id="rect28450-6"
       width="837.53137"
       height="56.906982"
       x="297.51111"
       y="610.69751" />
    <rect
       style="opacity:1;fill:#f5f5f5;fill-opacity:1;stroke:none;stroke-width:10;stroke-linecap:round;stroke-linejoin:miter;stroke-miterlimit:4;stroke-dasharray:none;stroke-opacity:1"
       id="rect28450-7-1-3"
       width="837.53137"
       height="56.906982"
       x="297.45972"
       y="552.57593"
       ry="0" />
    <flowRoot
       transform="translate(345.17084,577.16018)"
       style="font-style:normal;font-variant:normal;font-weight:normal;font-stretch:normal;font-size:17.80747032px;line-height:125%;font-family:Roboto;-inkscape-font-specification:Roboto;text-align:start;letter-spacing:0px;word-spacing:0px;writing-mode:lr-tb;text-anchor:start;display:inline;fill:#000000;fill-opacity:0.87058824;stroke:none;stroke-width:1px;stroke-linecap:butt;stroke-linejoin:miter;stroke-opacity:1;enable-background:new"
       id="flowRoot27622-8-1"
       xml:space="preserve"><flowRegion
         id="flowRegion27624-4-7"><rect
           y="-8.4147177"
           x="-0.83251446"
           height="58.312714"
           width="282.099"
           id="rect27626-4-5" /></flowRegion><flowPara
         style="font-style:normal;font-variant:normal;font-weight:normal;font-stretch:normal;font-size:12px;line-height:172.00000286%;font-family:Roboto;-inkscape-font-specification:Roboto;fill:#000000;fill-opacity:0.87058824"
         id="flowPara27628-1-9">SR315O JD</flowPara></flowRoot>    <flowRoot
       transform="translate(488.91884,577.3436)"
       style="font-style:normal;font-variant:normal;font-weight:normal;font-stretch:normal;font-size:17.80747032px;line-height:125%;font-family:Roboto;-inkscape-font-specification:Roboto;text-align:start;letter-spacing:0px;word-spacing:0px;writing-mode:lr-tb;text-anchor:start;display:inline;fill:#000000;fill-opacity:0.87058824;stroke:none;stroke-width:1px;stroke-linecap:butt;stroke-linejoin:miter;stroke-opacity:1;enable-background:new"
       id="flowRoot27622-8-7-62"
       xml:space="preserve"><flowRegion
         id="flowRegion27624-4-8-1"><rect
           y="-8.4147177"
           x="-0.83251446"
           height="58.312714"
           width="282.099"
           id="rect27626-4-6-7" /></flowRegion><flowPara
         style="font-style:normal;font-variant:normal;font-weight:normal;font-stretch:normal;font-size:12px;line-height:172.00000286%;font-family:Roboto;-inkscape-font-specification:Roboto;fill:#000000;fill-opacity:0.87058824"
         id="flowPara27628-1-8-8">2007-263344</flowPara></flowRoot>    <flowRoot
       transform="translate(618.86579,569.4406)"
       style="font-style:normal;font-variant:normal;font-weight:normal;font-stretch:normal;font-size:17.80747032px;line-height:125%;font-family:Roboto;-inkscape-font-specification:Roboto;text-align:start;letter-spacing:0px;word-spacing:0px;writing-mode:lr-tb;text-anchor:start;display:inline;fill:#000000;fill-opacity:0.87058824;stroke:none;stroke-width:1px;stroke-linecap:butt;stroke-linejoin:miter;stroke-opacity:1;enable-background:new"
       id="flowRoot27622-8-8-5"
       xml:space="preserve"><flowRegion
         id="flowRegion27624-4-4-7"><rect
           y="-8.4147177"
           x="-0.83251446"
           height="55.282253"
           width="250.78427"
           id="rect27626-4-3-4" /></flowRegion><flowPara
         style="font-style:normal;font-variant:normal;font-weight:normal;font-stretch:normal;font-size:12px;line-height:172.00000286%;font-family:Roboto;-inkscape-font-specification:Roboto;fill:#000000;fill-opacity:0.87058824"
         id="flowPara27628-1-1-18">STRASBOURG : ECLAIRAGE DE LA RUE DE LA GAUZAU</flowPara></flowRoot>    <flowRoot
       transform="translate(874.68167,577.44059)"
       style="font-style:normal;font-variant:normal;font-weight:normal;font-stretch:normal;font-size:17.80747032px;line-height:125%;font-family:Roboto;-inkscape-font-specification:Roboto;text-align:start;letter-spacing:0px;word-spacing:0px;writing-mode:lr-tb;text-anchor:start;display:inline;fill:#000000;fill-opacity:0.87058824;stroke:none;stroke-width:1px;stroke-linecap:butt;stroke-linejoin:miter;stroke-opacity:1;enable-background:new"
       id="flowRoot27622-8-7-6-59"
       xml:space="preserve"><flowRegion
         id="flowRegion27624-4-8-8-7"><rect
           y="-8.4147177"
           x="-0.83251446"
           height="58.312714"
           width="282.099"
           id="rect27626-4-6-9-5" /></flowRegion><flowPara
         style="font-style:normal;font-variant:normal;font-weight:normal;font-stretch:normal;font-size:12px;line-height:172.00000286%;font-family:Roboto;-inkscape-font-specification:Roboto;fill:#000000;fill-opacity:0.87058824"
         id="flowPara27628-1-8-2-3">SAENGER Roland</flowPara></flowRoot>    <flowRoot
       transform="translate(1015.3962,577.22631)"
       style="font-style:normal;font-variant:normal;font-weight:normal;font-stretch:normal;font-size:17.80747032px;line-height:125%;font-family:Roboto;-inkscape-font-specification:Roboto;text-align:start;letter-spacing:0px;word-spacing:0px;writing-mode:lr-tb;text-anchor:start;display:inline;fill:#000000;fill-opacity:0.87058824;stroke:none;stroke-width:1px;stroke-linecap:butt;stroke-linejoin:miter;stroke-opacity:1;enable-background:new"
       id="flowRoot27622-8-7-66-88"
       xml:space="preserve"><flowRegion
         id="flowRegion27624-4-8-4-3"><rect
           y="-8.4147177"
           x="-0.83251446"
           height="58.312714"
           width="282.099"
           id="rect27626-4-6-95-18" /></flowRegion><flowPara
         style="font-style:normal;font-variant:normal;font-weight:normal;font-stretch:normal;font-size:12px;line-height:172.00000286%;font-family:Roboto;-inkscape-font-specification:Roboto;fill:#000000;fill-opacity:0.87058824"
         id="flowPara27628-1-8-0-9">DIEBOLD Julien</flowPara></flowRoot>    <rect
       style="display:inline;opacity:1;fill:#000000;fill-opacity:0.11764706;stroke:none;stroke-width:1;stroke-linecap:round;stroke-miterlimit:4;stroke-dasharray:none;stroke-opacity:1;enable-background:new"
       id="rect13518-0-4-6"
       width="837.26794"
       height="0.99990845"
       x="297.86826"
       y="667.71454" />
    <flowRoot
       transform="translate(345.45657,633.56668)"
       style="font-style:normal;font-variant:normal;font-weight:normal;font-stretch:normal;font-size:17.80747032px;line-height:125%;font-family:Roboto;-inkscape-font-specification:Roboto;text-align:start;letter-spacing:0px;word-spacing:0px;writing-mode:lr-tb;text-anchor:start;display:inline;fill:#000000;fill-opacity:0.87058824;stroke:none;stroke-width:1px;stroke-linecap:butt;stroke-linejoin:miter;stroke-opacity:1;enable-background:new"
       id="flowRoot27622-8-87-4"
       xml:space="preserve"><flowRegion
         id="flowRegion27624-4-1-33"><rect
           y="-8.4147177"
           x="-0.83251446"
           height="58.312714"
           width="282.099"
           id="rect27626-4-7-3" /></flowRegion><flowPara
         style="font-style:normal;font-variant:normal;font-weight:normal;font-stretch:normal;font-size:12px;line-height:172.00000286%;font-family:Roboto;-inkscape-font-specification:Roboto;fill:#000000;fill-opacity:0.87058824"
         id="flowPara27628-1-2-8">Attente retour 2</flowPara></flowRoot>    <flowRoot
       transform="translate(489.20457,633.7501)"
       style="font-style:normal;font-variant:normal;font-weight:normal;font-stretch:normal;font-size:17.80747032px;line-height:125%;font-family:Roboto;-inkscape-font-specification:Roboto;text-align:start;letter-spacing:0px;word-spacing:0px;writing-mode:lr-tb;text-anchor:start;display:inline;fill:#000000;fill-opacity:0.87058824;stroke:none;stroke-width:1px;stroke-linecap:butt;stroke-linejoin:miter;stroke-opacity:1;enable-background:new"
       id="flowRoot27622-8-7-7-60"
       xml:space="preserve"><flowRegion
         id="flowRegion27624-4-8-2-4"><rect
           y="-8.4147177"
           x="-0.83251446"
           height="58.312714"
           width="282.099"
           id="rect27626-4-6-2-8" /></flowRegion><flowPara
         style="font-style:normal;font-variant:normal;font-weight:normal;font-stretch:normal;font-size:12px;line-height:172.00000286%;font-family:Roboto;-inkscape-font-specification:Roboto;fill:#000000;fill-opacity:0.87058824"
         id="flowPara27628-1-8-6-8">Attente retour 2</flowPara></flowRoot>    <flowRoot
       transform="translate(619.15152,625.8471)"
       style="font-style:normal;font-variant:normal;font-weight:normal;font-stretch:normal;font-size:17.80747032px;line-height:125%;font-family:Roboto;-inkscape-font-specification:Roboto;text-align:start;letter-spacing:0px;word-spacing:0px;writing-mode:lr-tb;text-anchor:start;display:inline;fill:#000000;fill-opacity:0.87058824;stroke:none;stroke-width:1px;stroke-linecap:butt;stroke-linejoin:miter;stroke-opacity:1;enable-background:new"
       id="flowRoot27622-8-8-1-8"
       xml:space="preserve"><flowRegion
         id="flowRegion27624-4-4-0-9"><rect
           y="-8.4147177"
           x="-0.83251446"
           height="55.282253"
           width="250.78427"
           id="rect27626-4-3-6-7" /></flowRegion><flowPara
         style="font-style:normal;font-variant:normal;font-weight:normal;font-stretch:normal;font-size:12px;line-height:172.00000286%;font-family:Roboto;-inkscape-font-specification:Roboto;fill:#000000;fill-opacity:0.87058824"
         id="flowPara27628-1-1-1-7">VDS GC : SECTEUR SOLIGNAC LYAUTEY - COMPLÉMENT MISSION</flowPara></flowRoot>    <flowRoot
       transform="translate(874.9674,633.84709)"
       style="font-style:normal;font-variant:normal;font-weight:normal;font-stretch:normal;font-size:17.80747032px;line-height:125%;font-family:Roboto;-inkscape-font-specification:Roboto;text-align:start;letter-spacing:0px;word-spacing:0px;writing-mode:lr-tb;text-anchor:start;display:inline;fill:#000000;fill-opacity:0.87058824;stroke:none;stroke-width:1px;stroke-linecap:butt;stroke-linejoin:miter;stroke-opacity:1;enable-background:new"
       id="flowRoot27622-8-7-6-5-6"
       xml:space="preserve"><flowRegion
         id="flowRegion27624-4-8-8-9-4"><rect
           y="-8.4147177"
           x="-0.83251446"
           height="58.312714"
           width="282.099"
           id="rect27626-4-6-9-4-30" /></flowRegion><flowPara
         style="font-style:normal;font-variant:normal;font-weight:normal;font-stretch:normal;font-size:12px;line-height:172.00000286%;font-family:Roboto;-inkscape-font-specification:Roboto;fill:#000000;fill-opacity:0.87058824"
         id="flowPara27628-1-8-2-9-3">GRASSER Brigitte</flowPara></flowRoot>    <flowRoot
       transform="translate(1015.6819,633.63281)"
       style="font-style:normal;font-variant:normal;font-weight:normal;font-stretch:normal;font-size:17.80747032px;line-height:125%;font-family:Roboto;-inkscape-font-specification:Roboto;text-align:start;letter-spacing:0px;word-spacing:0px;writing-mode:lr-tb;text-anchor:start;display:inline;fill:#000000;fill-opacity:0.87058824;stroke:none;stroke-width:1px;stroke-linecap:butt;stroke-linejoin:miter;stroke-opacity:1;enable-background:new"
       id="flowRoot27622-8-7-66-0-0"
       xml:space="preserve"><flowRegion
         id="flowRegion27624-4-8-4-9-9"><rect
           y="-8.4147177"
           x="-0.83251446"
           height="58.312714"
           width="282.099"
           id="rect27626-4-6-95-1-2" /></flowRegion><flowPara
         style="font-style:normal;font-variant:normal;font-weight:normal;font-stretch:normal;font-size:12px;line-height:172.00000286%;font-family:Roboto;-inkscape-font-specification:Roboto;fill:#000000;fill-opacity:0.87058824"
         id="flowPara27628-1-8-0-7-5">DIDIER Jean-Louis</flowPara></flowRoot>    <rect
       style="display:inline;opacity:1;fill:#000000;fill-opacity:0.11764706;stroke:none;stroke-width:1;stroke-linecap:round;stroke-miterlimit:4;stroke-dasharray:none;stroke-opacity:1;enable-background:new"
       id="rect13518-1-4"
       width="837.71429"
       height="0.99990845"
       x="297.51627"
       y="609.59735" />
    <rect
       style="opacity:1;fill:#ffffff;fill-opacity:1;stroke:none;stroke-width:10;stroke-linecap:round;stroke-linejoin:miter;stroke-miterlimit:4;stroke-dasharray:none;stroke-opacity:1"
       id="rect28450-0"
       width="837.53137"
       height="56.906982"
       x="297.40836"
       y="726.86505" />
    <rect
       style="opacity:1;fill:#f5f5f5;fill-opacity:1;stroke:none;stroke-width:10;stroke-linecap:round;stroke-linejoin:miter;stroke-miterlimit:4;stroke-dasharray:none;stroke-opacity:1"
       id="rect28450-7-1-5"
       width="837.53137"
       height="56.906982"
       x="297.35696"
       y="668.74347"
       ry="0" />
    <flowRoot
       transform="translate(345.0681,693.32773)"
       style="font-style:normal;font-variant:normal;font-weight:normal;font-stretch:normal;font-size:17.80747032px;line-height:125%;font-family:Roboto;-inkscape-font-specification:Roboto;text-align:start;letter-spacing:0px;word-spacing:0px;writing-mode:lr-tb;text-anchor:start;display:inline;fill:#000000;fill-opacity:0.87058824;stroke:none;stroke-width:1px;stroke-linecap:butt;stroke-linejoin:miter;stroke-opacity:1;enable-background:new"
       id="flowRoot27622-8-9"
       xml:space="preserve"><flowRegion
         id="flowRegion27624-4-46"><rect
           y="-8.4147177"
           x="-0.83251446"
           height="58.312714"
           width="282.099"
           id="rect27626-4-9" /></flowRegion><flowPara
         style="font-style:normal;font-variant:normal;font-weight:normal;font-stretch:normal;font-size:12px;line-height:172.00000286%;font-family:Roboto;-inkscape-font-specification:Roboto;fill:#000000;fill-opacity:0.87058824"
         id="flowPara27628-1-22">Attente retour 1045</flowPara></flowRoot>    <flowRoot
       transform="translate(488.8161,693.51115)"
       style="font-style:normal;font-variant:normal;font-weight:normal;font-stretch:normal;font-size:17.80747032px;line-height:125%;font-family:Roboto;-inkscape-font-specification:Roboto;text-align:start;letter-spacing:0px;word-spacing:0px;writing-mode:lr-tb;text-anchor:start;display:inline;fill:#000000;fill-opacity:0.87058824;stroke:none;stroke-width:1px;stroke-linecap:butt;stroke-linejoin:miter;stroke-opacity:1;enable-background:new"
       id="flowRoot27622-8-7-4"
       xml:space="preserve"><flowRegion
         id="flowRegion27624-4-8-7"><rect
           y="-8.4147177"
           x="-0.83251446"
           height="58.312714"
           width="282.099"
           id="rect27626-4-6-75" /></flowRegion><flowPara
         style="font-style:normal;font-variant:normal;font-weight:normal;font-stretch:normal;font-size:12px;line-height:172.00000286%;font-family:Roboto;-inkscape-font-specification:Roboto;fill:#000000;fill-opacity:0.87058824"
         id="flowPara27628-1-8-4">Attente retour 1045</flowPara></flowRoot>    <flowRoot
       transform="translate(618.76305,685.60815)"
       style="font-style:normal;font-variant:normal;font-weight:normal;font-stretch:normal;font-size:17.80747032px;line-height:125%;font-family:Roboto;-inkscape-font-specification:Roboto;text-align:start;letter-spacing:0px;word-spacing:0px;writing-mode:lr-tb;text-anchor:start;display:inline;fill:#000000;fill-opacity:0.87058824;stroke:none;stroke-width:1px;stroke-linecap:butt;stroke-linejoin:miter;stroke-opacity:1;enable-background:new"
       id="flowRoot27622-8-8-8"
       xml:space="preserve"><flowRegion
         id="flowRegion27624-4-4-1"><rect
           y="-8.4147177"
           x="-0.83251446"
           height="55.282253"
           width="250.78427"
           id="rect27626-4-3-2" /></flowRegion><flowPara
         style="font-style:normal;font-variant:normal;font-weight:normal;font-stretch:normal;font-size:12px;line-height:172.00000286%;font-family:Roboto;-inkscape-font-specification:Roboto;fill:#000000;fill-opacity:0.87058824"
         id="flowPara27628-1-1-8">VDS BAT : TRAVAUX D'ETANCHEITE SUR LA TOITURE DE LA TOITURE DE LA TRIBUNE</flowPara></flowRoot>    <flowRoot
       transform="translate(874.57893,693.60814)"
       style="font-style:normal;font-variant:normal;font-weight:normal;font-stretch:normal;font-size:17.80747032px;line-height:125%;font-family:Roboto;-inkscape-font-specification:Roboto;text-align:start;letter-spacing:0px;word-spacing:0px;writing-mode:lr-tb;text-anchor:start;display:inline;fill:#000000;fill-opacity:0.87058824;stroke:none;stroke-width:1px;stroke-linecap:butt;stroke-linejoin:miter;stroke-opacity:1;enable-background:new"
       id="flowRoot27622-8-7-6-93"
       xml:space="preserve"><flowRegion
         id="flowRegion27624-4-8-8-6"><rect
           y="-8.4147177"
           x="-0.83251446"
           height="58.312714"
           width="282.099"
           id="rect27626-4-6-9-8" /></flowRegion><flowPara
         style="font-style:normal;font-variant:normal;font-weight:normal;font-stretch:normal;font-size:12px;line-height:172.00000286%;font-family:Roboto;-inkscape-font-specification:Roboto;fill:#000000;fill-opacity:0.87058824"
         id="flowPara27628-1-8-2-02">Non renseigné</flowPara></flowRoot>    <flowRoot
       transform="translate(1015.2933,693.39386)"
       style="font-style:normal;font-variant:normal;font-weight:normal;font-stretch:normal;font-size:17.80747032px;line-height:125%;font-family:Roboto;-inkscape-font-specification:Roboto;text-align:start;letter-spacing:0px;word-spacing:0px;writing-mode:lr-tb;text-anchor:start;display:inline;fill:#000000;fill-opacity:0.87058824;stroke:none;stroke-width:1px;stroke-linecap:butt;stroke-linejoin:miter;stroke-opacity:1;enable-background:new"
       id="flowRoot27622-8-7-66-1"
       xml:space="preserve"><flowRegion
         id="flowRegion27624-4-8-4-0"><rect
           y="-8.4147177"
           x="-0.83251446"
           height="58.312714"
           width="282.099"
           id="rect27626-4-6-95-51" /></flowRegion><flowPara
         style="font-style:normal;font-variant:normal;font-weight:normal;font-stretch:normal;font-size:12px;line-height:172.00000286%;font-family:Roboto;-inkscape-font-specification:Roboto;fill:#000000;fill-opacity:0.87058824"
         id="flowPara27628-1-8-0-1">Non renseigné</flowPara></flowRoot>    <rect
       style="display:inline;opacity:1;fill:#000000;fill-opacity:0.11764706;stroke:none;stroke-width:1;stroke-linecap:round;stroke-miterlimit:4;stroke-dasharray:none;stroke-opacity:1;enable-background:new"
       id="rect13518-0-4-0"
       width="837.26794"
       height="0.99990845"
       x="297.7655"
       y="783.88208" />
    <flowRoot
       transform="translate(345.35383,749.73423)"
       style="font-style:normal;font-variant:normal;font-weight:normal;font-stretch:normal;font-size:17.80747032px;line-height:125%;font-family:Roboto;-inkscape-font-specification:Roboto;text-align:start;letter-spacing:0px;word-spacing:0px;writing-mode:lr-tb;text-anchor:start;display:inline;fill:#000000;fill-opacity:0.87058824;stroke:none;stroke-width:1px;stroke-linecap:butt;stroke-linejoin:miter;stroke-opacity:1;enable-background:new"
       id="flowRoot27622-8-87-8"
       xml:space="preserve"><flowRegion
         id="flowRegion27624-4-1-5"><rect
           y="-8.4147177"
           x="-0.83251446"
           height="58.312714"
           width="282.099"
           id="rect27626-4-7-0" /></flowRegion><flowPara
         style="font-style:normal;font-variant:normal;font-weight:normal;font-stretch:normal;font-size:12px;line-height:172.00000286%;font-family:Roboto;-inkscape-font-specification:Roboto;fill:#000000;fill-opacity:0.87058824"
         id="flowPara27628-1-2-6">Attente retour 2</flowPara></flowRoot>    <flowRoot
       transform="translate(489.10183,749.91765)"
       style="font-style:normal;font-variant:normal;font-weight:normal;font-stretch:normal;font-size:17.80747032px;line-height:125%;font-family:Roboto;-inkscape-font-specification:Roboto;text-align:start;letter-spacing:0px;word-spacing:0px;writing-mode:lr-tb;text-anchor:start;display:inline;fill:#000000;fill-opacity:0.87058824;stroke:none;stroke-width:1px;stroke-linecap:butt;stroke-linejoin:miter;stroke-opacity:1;enable-background:new"
       id="flowRoot27622-8-7-7-4"
       xml:space="preserve"><flowRegion
         id="flowRegion27624-4-8-2-6"><rect
           y="-8.4147177"
           x="-0.83251446"
           height="58.312714"
           width="282.099"
           id="rect27626-4-6-2-2" /></flowRegion><flowPara
         style="font-style:normal;font-variant:normal;font-weight:normal;font-stretch:normal;font-size:12px;line-height:172.00000286%;font-family:Roboto;-inkscape-font-specification:Roboto;fill:#000000;fill-opacity:0.87058824"
         id="flowPara27628-1-8-6-58">Attente retour 2</flowPara></flowRoot>    <flowRoot
       transform="translate(619.04878,742.01465)"
       style="font-style:normal;font-variant:normal;font-weight:normal;font-stretch:normal;font-size:17.80747032px;line-height:125%;font-family:Roboto;-inkscape-font-specification:Roboto;text-align:start;letter-spacing:0px;word-spacing:0px;writing-mode:lr-tb;text-anchor:start;display:inline;fill:#000000;fill-opacity:0.87058824;stroke:none;stroke-width:1px;stroke-linecap:butt;stroke-linejoin:miter;stroke-opacity:1;enable-background:new"
       id="flowRoot27622-8-8-1-6"
       xml:space="preserve"><flowRegion
         id="flowRegion27624-4-4-0-2"><rect
           y="-8.4147177"
           x="-0.83251446"
           height="55.282253"
           width="250.78427"
           id="rect27626-4-3-6-8" /></flowRegion><flowPara
         style="font-style:normal;font-variant:normal;font-weight:normal;font-stretch:normal;font-size:12px;line-height:172.00000286%;font-family:Roboto;-inkscape-font-specification:Roboto;fill:#000000;fill-opacity:0.87058824"
         id="flowPara27628-1-1-1-4">VDS GC : SECTEUR SOLIGNAC LYAUTEY - COMPLÉMENT MISSION</flowPara></flowRoot>    <flowRoot
       transform="translate(874.86466,750.01464)"
       style="font-style:normal;font-variant:normal;font-weight:normal;font-stretch:normal;font-size:17.80747032px;line-height:125%;font-family:Roboto;-inkscape-font-specification:Roboto;text-align:start;letter-spacing:0px;word-spacing:0px;writing-mode:lr-tb;text-anchor:start;display:inline;fill:#000000;fill-opacity:0.87058824;stroke:none;stroke-width:1px;stroke-linecap:butt;stroke-linejoin:miter;stroke-opacity:1;enable-background:new"
       id="flowRoot27622-8-7-6-5-7"
       xml:space="preserve"><flowRegion
         id="flowRegion27624-4-8-8-9-2"><rect
           y="-8.4147177"
           x="-0.83251446"
           height="58.312714"
           width="282.099"
           id="rect27626-4-6-9-4-4" /></flowRegion><flowPara
         style="font-style:normal;font-variant:normal;font-weight:normal;font-stretch:normal;font-size:12px;line-height:172.00000286%;font-family:Roboto;-inkscape-font-specification:Roboto;fill:#000000;fill-opacity:0.87058824"
         id="flowPara27628-1-8-2-9-06">GRASSER Brigitte</flowPara></flowRoot>    <flowRoot
       transform="translate(1015.579,749.80036)"
       style="font-style:normal;font-variant:normal;font-weight:normal;font-stretch:normal;font-size:17.80747032px;line-height:125%;font-family:Roboto;-inkscape-font-specification:Roboto;text-align:start;letter-spacing:0px;word-spacing:0px;writing-mode:lr-tb;text-anchor:start;display:inline;fill:#000000;fill-opacity:0.87058824;stroke:none;stroke-width:1px;stroke-linecap:butt;stroke-linejoin:miter;stroke-opacity:1;enable-background:new"
       id="flowRoot27622-8-7-66-0-2"
       xml:space="preserve"><flowRegion
         id="flowRegion27624-4-8-4-9-99"><rect
           y="-8.4147177"
           x="-0.83251446"
           height="58.312714"
           width="282.099"
           id="rect27626-4-6-95-1-0" /></flowRegion><flowPara
         style="font-style:normal;font-variant:normal;font-weight:normal;font-stretch:normal;font-size:12px;line-height:172.00000286%;font-family:Roboto;-inkscape-font-specification:Roboto;fill:#000000;fill-opacity:0.87058824"
         id="flowPara27628-1-8-0-7-8">DIDIER Jean-Louis</flowPara></flowRoot>    <rect
       style="display:inline;opacity:1;fill:#000000;fill-opacity:0.11764706;stroke:none;stroke-width:1;stroke-linecap:round;stroke-miterlimit:4;stroke-dasharray:none;stroke-opacity:1;enable-background:new"
       id="rect13518-1-1"
       width="837.71429"
       height="0.99990845"
       x="297.41351"
       y="725.76489" />
    <rect
       style="opacity:1;fill:#ffffff;fill-opacity:1;stroke:none;stroke-width:10;stroke-linecap:round;stroke-linejoin:miter;stroke-miterlimit:4;stroke-dasharray:none;stroke-opacity:1"
       id="rect28450-3"
       width="837.53137"
       height="56.906982"
       x="297.40833"
       y="843.03265" />
    <rect
       style="opacity:1;fill:#f5f5f5;fill-opacity:1;stroke:none;stroke-width:10;stroke-linecap:round;stroke-linejoin:miter;stroke-miterlimit:4;stroke-dasharray:none;stroke-opacity:1"
       id="rect28450-7-1-1"
       width="837.53137"
       height="56.906982"
       x="297.35693"
       y="784.91107"
       ry="0" />
    <flowRoot
       transform="translate(345.0681,809.49527)"
       style="font-style:normal;font-variant:normal;font-weight:normal;font-stretch:normal;font-size:17.80747032px;line-height:125%;font-family:Roboto;-inkscape-font-specification:Roboto;text-align:start;letter-spacing:0px;word-spacing:0px;writing-mode:lr-tb;text-anchor:start;display:inline;fill:#000000;fill-opacity:0.87058824;stroke:none;stroke-width:1px;stroke-linecap:butt;stroke-linejoin:miter;stroke-opacity:1;enable-background:new"
       id="flowRoot27622-8-10"
       xml:space="preserve"><flowRegion
         id="flowRegion27624-4-3"><rect
           y="-8.4147177"
           x="-0.83251446"
           height="58.312714"
           width="282.099"
           id="rect27626-4-4" /></flowRegion><flowPara
         style="font-style:normal;font-variant:normal;font-weight:normal;font-stretch:normal;font-size:12px;line-height:172.00000286%;font-family:Roboto;-inkscape-font-specification:Roboto;fill:#000000;fill-opacity:0.87058824"
         id="flowPara27628-1-0">Attente retour 1045</flowPara></flowRoot>    <flowRoot
       transform="translate(488.81611,809.67869)"
       style="font-style:normal;font-variant:normal;font-weight:normal;font-stretch:normal;font-size:17.80747032px;line-height:125%;font-family:Roboto;-inkscape-font-specification:Roboto;text-align:start;letter-spacing:0px;word-spacing:0px;writing-mode:lr-tb;text-anchor:start;display:inline;fill:#000000;fill-opacity:0.87058824;stroke:none;stroke-width:1px;stroke-linecap:butt;stroke-linejoin:miter;stroke-opacity:1;enable-background:new"
       id="flowRoot27622-8-7-3"
       xml:space="preserve"><flowRegion
         id="flowRegion27624-4-8-9"><rect
           y="-8.4147177"
           x="-0.83251446"
           height="58.312714"
           width="282.099"
           id="rect27626-4-6-1" /></flowRegion><flowPara
         style="font-style:normal;font-variant:normal;font-weight:normal;font-stretch:normal;font-size:12px;line-height:172.00000286%;font-family:Roboto;-inkscape-font-specification:Roboto;fill:#000000;fill-opacity:0.87058824"
         id="flowPara27628-1-8-96">Attente retour 1045</flowPara></flowRoot>    <flowRoot
       transform="translate(618.76306,801.77569)"
       style="font-style:normal;font-variant:normal;font-weight:normal;font-stretch:normal;font-size:17.80747032px;line-height:125%;font-family:Roboto;-inkscape-font-specification:Roboto;text-align:start;letter-spacing:0px;word-spacing:0px;writing-mode:lr-tb;text-anchor:start;display:inline;fill:#000000;fill-opacity:0.87058824;stroke:none;stroke-width:1px;stroke-linecap:butt;stroke-linejoin:miter;stroke-opacity:1;enable-background:new"
       id="flowRoot27622-8-8-9"
       xml:space="preserve"><flowRegion
         id="flowRegion27624-4-4-3"><rect
           y="-8.4147177"
           x="-0.83251446"
           height="55.282253"
           width="250.78427"
           id="rect27626-4-3-3" /></flowRegion><flowPara
         style="font-style:normal;font-variant:normal;font-weight:normal;font-stretch:normal;font-size:12px;line-height:172.00000286%;font-family:Roboto;-inkscape-font-specification:Roboto;fill:#000000;fill-opacity:0.87058824"
         id="flowPara27628-1-1-80">VDS BAT : TRAVAUX D'ETANCHEITE SUR LA TOITURE DE LA TOITURE DE LA TRIBUNE</flowPara></flowRoot>    <flowRoot
       transform="translate(874.57894,809.77568)"
       style="font-style:normal;font-variant:normal;font-weight:normal;font-stretch:normal;font-size:17.80747032px;line-height:125%;font-family:Roboto;-inkscape-font-specification:Roboto;text-align:start;letter-spacing:0px;word-spacing:0px;writing-mode:lr-tb;text-anchor:start;display:inline;fill:#000000;fill-opacity:0.87058824;stroke:none;stroke-width:1px;stroke-linecap:butt;stroke-linejoin:miter;stroke-opacity:1;enable-background:new"
       id="flowRoot27622-8-7-6-56"
       xml:space="preserve"><flowRegion
         id="flowRegion27624-4-8-8-64"><rect
           y="-8.4147177"
           x="-0.83251446"
           height="58.312714"
           width="282.099"
           id="rect27626-4-6-9-0" /></flowRegion><flowPara
         style="font-style:normal;font-variant:normal;font-weight:normal;font-stretch:normal;font-size:12px;line-height:172.00000286%;font-family:Roboto;-inkscape-font-specification:Roboto;fill:#000000;fill-opacity:0.87058824"
         id="flowPara27628-1-8-2-04">Non renseigné</flowPara></flowRoot>    <flowRoot
       transform="translate(1015.2932,809.5614)"
       style="font-style:normal;font-variant:normal;font-weight:normal;font-stretch:normal;font-size:17.80747032px;line-height:125%;font-family:Roboto;-inkscape-font-specification:Roboto;text-align:start;letter-spacing:0px;word-spacing:0px;writing-mode:lr-tb;text-anchor:start;display:inline;fill:#000000;fill-opacity:0.87058824;stroke:none;stroke-width:1px;stroke-linecap:butt;stroke-linejoin:miter;stroke-opacity:1;enable-background:new"
       id="flowRoot27622-8-7-66-6"
       xml:space="preserve"><flowRegion
         id="flowRegion27624-4-8-4-2"><rect
           y="-8.4147177"
           x="-0.83251446"
           height="58.312714"
           width="282.099"
           id="rect27626-4-6-95-6" /></flowRegion><flowPara
         style="font-style:normal;font-variant:normal;font-weight:normal;font-stretch:normal;font-size:12px;line-height:172.00000286%;font-family:Roboto;-inkscape-font-specification:Roboto;fill:#000000;fill-opacity:0.87058824"
         id="flowPara27628-1-8-0-75">Non renseigné</flowPara></flowRoot>    <rect
       style="display:inline;opacity:1;fill:#000000;fill-opacity:0.11764706;stroke:none;stroke-width:1;stroke-linecap:round;stroke-miterlimit:4;stroke-dasharray:none;stroke-opacity:1;enable-background:new"
       id="rect13518-0-4-69"
       width="837.26794"
       height="0.99990845"
       x="297.76547"
       y="900.04968" />
    <flowRoot
       transform="translate(345.35383,865.90177)"
       style="font-style:normal;font-variant:normal;font-weight:normal;font-stretch:normal;font-size:17.80747032px;line-height:125%;font-family:Roboto;-inkscape-font-specification:Roboto;text-align:start;letter-spacing:0px;word-spacing:0px;writing-mode:lr-tb;text-anchor:start;display:inline;fill:#000000;fill-opacity:0.87058824;stroke:none;stroke-width:1px;stroke-linecap:butt;stroke-linejoin:miter;stroke-opacity:1;enable-background:new"
       id="flowRoot27622-8-87-87"
       xml:space="preserve"><flowRegion
         id="flowRegion27624-4-1-2"><rect
           y="-8.4147177"
           x="-0.83251446"
           height="58.312714"
           width="282.099"
           id="rect27626-4-7-82" /></flowRegion><flowPara
         style="font-style:normal;font-variant:normal;font-weight:normal;font-stretch:normal;font-size:12px;line-height:172.00000286%;font-family:Roboto;-inkscape-font-specification:Roboto;fill:#000000;fill-opacity:0.87058824"
         id="flowPara27628-1-2-9">Attente retour 2</flowPara></flowRoot>    <flowRoot
       transform="translate(489.10184,866.08519)"
       style="font-style:normal;font-variant:normal;font-weight:normal;font-stretch:normal;font-size:17.80747032px;line-height:125%;font-family:Roboto;-inkscape-font-specification:Roboto;text-align:start;letter-spacing:0px;word-spacing:0px;writing-mode:lr-tb;text-anchor:start;display:inline;fill:#000000;fill-opacity:0.87058824;stroke:none;stroke-width:1px;stroke-linecap:butt;stroke-linejoin:miter;stroke-opacity:1;enable-background:new"
       id="flowRoot27622-8-7-7-9"
       xml:space="preserve"><flowRegion
         id="flowRegion27624-4-8-2-60"><rect
           y="-8.4147177"
           x="-0.83251446"
           height="58.312714"
           width="282.099"
           id="rect27626-4-6-2-27" /></flowRegion><flowPara
         style="font-style:normal;font-variant:normal;font-weight:normal;font-stretch:normal;font-size:12px;line-height:172.00000286%;font-family:Roboto;-inkscape-font-specification:Roboto;fill:#000000;fill-opacity:0.87058824"
         id="flowPara27628-1-8-6-6">Attente retour 2</flowPara></flowRoot>    <flowRoot
       transform="translate(619.04879,858.18219)"
       style="font-style:normal;font-variant:normal;font-weight:normal;font-stretch:normal;font-size:17.80747032px;line-height:125%;font-family:Roboto;-inkscape-font-specification:Roboto;text-align:start;letter-spacing:0px;word-spacing:0px;writing-mode:lr-tb;text-anchor:start;display:inline;fill:#000000;fill-opacity:0.87058824;stroke:none;stroke-width:1px;stroke-linecap:butt;stroke-linejoin:miter;stroke-opacity:1;enable-background:new"
       id="flowRoot27622-8-8-1-1"
       xml:space="preserve"><flowRegion
         id="flowRegion27624-4-4-0-3"><rect
           y="-8.4147177"
           x="-0.83251446"
           height="55.282253"
           width="250.78427"
           id="rect27626-4-3-6-2" /></flowRegion><flowPara
         style="font-style:normal;font-variant:normal;font-weight:normal;font-stretch:normal;font-size:12px;line-height:172.00000286%;font-family:Roboto;-inkscape-font-specification:Roboto;fill:#000000;fill-opacity:0.87058824"
         id="flowPara27628-1-1-1-1">VDS GC : SECTEUR SOLIGNAC LYAUTEY - COMPLÉMENT MISSION</flowPara></flowRoot>    <flowRoot
       transform="translate(874.86467,866.18218)"
       style="font-style:normal;font-variant:normal;font-weight:normal;font-stretch:normal;font-size:17.80747032px;line-height:125%;font-family:Roboto;-inkscape-font-specification:Roboto;text-align:start;letter-spacing:0px;word-spacing:0px;writing-mode:lr-tb;text-anchor:start;display:inline;fill:#000000;fill-opacity:0.87058824;stroke:none;stroke-width:1px;stroke-linecap:butt;stroke-linejoin:miter;stroke-opacity:1;enable-background:new"
       id="flowRoot27622-8-7-6-5-5"
       xml:space="preserve"><flowRegion
         id="flowRegion27624-4-8-8-9-9"><rect
           y="-8.4147177"
           x="-0.83251446"
           height="58.312714"
           width="282.099"
           id="rect27626-4-6-9-4-9" /></flowRegion><flowPara
         style="font-style:normal;font-variant:normal;font-weight:normal;font-stretch:normal;font-size:12px;line-height:172.00000286%;font-family:Roboto;-inkscape-font-specification:Roboto;fill:#000000;fill-opacity:0.87058824"
         id="flowPara27628-1-8-2-9-1">GRASSER Brigitte</flowPara></flowRoot>    <flowRoot
       transform="translate(1015.5789,865.9679)"
       style="font-style:normal;font-variant:normal;font-weight:normal;font-stretch:normal;font-size:17.80747032px;line-height:125%;font-family:Roboto;-inkscape-font-specification:Roboto;text-align:start;letter-spacing:0px;word-spacing:0px;writing-mode:lr-tb;text-anchor:start;display:inline;fill:#000000;fill-opacity:0.87058824;stroke:none;stroke-width:1px;stroke-linecap:butt;stroke-linejoin:miter;stroke-opacity:1;enable-background:new"
       id="flowRoot27622-8-7-66-0-49"
       xml:space="preserve"><flowRegion
         id="flowRegion27624-4-8-4-9-1"><rect
           y="-8.4147177"
           x="-0.83251446"
           height="58.312714"
           width="282.099"
           id="rect27626-4-6-95-1-07" /></flowRegion><flowPara
         style="font-style:normal;font-variant:normal;font-weight:normal;font-stretch:normal;font-size:12px;line-height:172.00000286%;font-family:Roboto;-inkscape-font-specification:Roboto;fill:#000000;fill-opacity:0.87058824"
         id="flowPara27628-1-8-0-7-58">DIDIER Jean-Louis</flowPara></flowRoot>    <rect
       style="display:inline;opacity:1;fill:#000000;fill-opacity:0.11764706;stroke:none;stroke-width:1;stroke-linecap:round;stroke-miterlimit:4;stroke-dasharray:none;stroke-opacity:1;enable-background:new"
       id="rect13518-1-70"
       width="837.71429"
       height="0.99990845"
       x="297.41348"
       y="841.9325" />
    <rect
       style="opacity:1;fill:#ffffff;fill-opacity:1;stroke:none;stroke-width:10;stroke-linecap:round;stroke-linejoin:miter;stroke-miterlimit:4;stroke-dasharray:none;stroke-opacity:1"
       id="rect28450-4"
       width="837.53137"
       height="56.906982"
       x="297.40836"
       y="959.20007" />
    <rect
       style="opacity:1;fill:#f5f5f5;fill-opacity:1;stroke:none;stroke-width:10;stroke-linecap:round;stroke-linejoin:miter;stroke-miterlimit:4;stroke-dasharray:none;stroke-opacity:1"
       id="rect28450-7-1-8"
       width="837.53137"
       height="56.906982"
       x="297.35696"
       y="901.07849"
       ry="0" />
    <flowRoot
       transform="translate(345.0681,925.66282)"
       style="font-style:normal;font-variant:normal;font-weight:normal;font-stretch:normal;font-size:17.80747032px;line-height:125%;font-family:Roboto;-inkscape-font-specification:Roboto;text-align:start;letter-spacing:0px;word-spacing:0px;writing-mode:lr-tb;text-anchor:start;display:inline;fill:#000000;fill-opacity:0.87058824;stroke:none;stroke-width:1px;stroke-linecap:butt;stroke-linejoin:miter;stroke-opacity:1;enable-background:new"
       id="flowRoot27622-8-0"
       xml:space="preserve"><flowRegion
         id="flowRegion27624-4-42"><rect
           y="-8.4147177"
           x="-0.83251446"
           height="58.312714"
           width="282.099"
           id="rect27626-4-96" /></flowRegion><flowPara
         style="font-style:normal;font-variant:normal;font-weight:normal;font-stretch:normal;font-size:12px;line-height:172.00000286%;font-family:Roboto;-inkscape-font-specification:Roboto;fill:#000000;fill-opacity:0.87058824"
         id="flowPara27628-1-10">Attente retour 1045</flowPara></flowRoot>    <flowRoot
       transform="translate(488.8161,925.84624)"
       style="font-style:normal;font-variant:normal;font-weight:normal;font-stretch:normal;font-size:17.80747032px;line-height:125%;font-family:Roboto;-inkscape-font-specification:Roboto;text-align:start;letter-spacing:0px;word-spacing:0px;writing-mode:lr-tb;text-anchor:start;display:inline;fill:#000000;fill-opacity:0.87058824;stroke:none;stroke-width:1px;stroke-linecap:butt;stroke-linejoin:miter;stroke-opacity:1;enable-background:new"
       id="flowRoot27622-8-7-42"
       xml:space="preserve"><flowRegion
         id="flowRegion27624-4-8-22"><rect
           y="-8.4147177"
           x="-0.83251446"
           height="58.312714"
           width="282.099"
           id="rect27626-4-6-0" /></flowRegion><flowPara
         style="font-style:normal;font-variant:normal;font-weight:normal;font-stretch:normal;font-size:12px;line-height:172.00000286%;font-family:Roboto;-inkscape-font-specification:Roboto;fill:#000000;fill-opacity:0.87058824"
         id="flowPara27628-1-8-5">Attente retour 1045</flowPara></flowRoot>    <flowRoot
       transform="translate(618.76305,917.94324)"
       style="font-style:normal;font-variant:normal;font-weight:normal;font-stretch:normal;font-size:17.80747032px;line-height:125%;font-family:Roboto;-inkscape-font-specification:Roboto;text-align:start;letter-spacing:0px;word-spacing:0px;writing-mode:lr-tb;text-anchor:start;display:inline;fill:#000000;fill-opacity:0.87058824;stroke:none;stroke-width:1px;stroke-linecap:butt;stroke-linejoin:miter;stroke-opacity:1;enable-background:new"
       id="flowRoot27622-8-8-52"
       xml:space="preserve"><flowRegion
         id="flowRegion27624-4-4-9"><rect
           y="-8.4147177"
           x="-0.83251446"
           height="55.282253"
           width="250.78427"
           id="rect27626-4-3-0" /></flowRegion><flowPara
         style="font-style:normal;font-variant:normal;font-weight:normal;font-stretch:normal;font-size:12px;line-height:172.00000286%;font-family:Roboto;-inkscape-font-specification:Roboto;fill:#000000;fill-opacity:0.87058824"
         id="flowPara27628-1-1-28">VDS BAT : TRAVAUX D'ETANCHEITE SUR LA TOITURE DE LA TOITURE DE LA TRIBUNE</flowPara></flowRoot>    <flowRoot
       transform="translate(874.57893,925.94323)"
       style="font-style:normal;font-variant:normal;font-weight:normal;font-stretch:normal;font-size:17.80747032px;line-height:125%;font-family:Roboto;-inkscape-font-specification:Roboto;text-align:start;letter-spacing:0px;word-spacing:0px;writing-mode:lr-tb;text-anchor:start;display:inline;fill:#000000;fill-opacity:0.87058824;stroke:none;stroke-width:1px;stroke-linecap:butt;stroke-linejoin:miter;stroke-opacity:1;enable-background:new"
       id="flowRoot27622-8-7-6-3"
       xml:space="preserve"><flowRegion
         id="flowRegion27624-4-8-8-8"><rect
           y="-8.4147177"
           x="-0.83251446"
           height="58.312714"
           width="282.099"
           id="rect27626-4-6-9-04" /></flowRegion><flowPara
         style="font-style:normal;font-variant:normal;font-weight:normal;font-stretch:normal;font-size:12px;line-height:172.00000286%;font-family:Roboto;-inkscape-font-specification:Roboto;fill:#000000;fill-opacity:0.87058824"
         id="flowPara27628-1-8-2-09">Non renseigné</flowPara></flowRoot>    <flowRoot
       transform="translate(1015.2934,925.72895)"
       style="font-style:normal;font-variant:normal;font-weight:normal;font-stretch:normal;font-size:17.80747032px;line-height:125%;font-family:Roboto;-inkscape-font-specification:Roboto;text-align:start;letter-spacing:0px;word-spacing:0px;writing-mode:lr-tb;text-anchor:start;display:inline;fill:#000000;fill-opacity:0.87058824;stroke:none;stroke-width:1px;stroke-linecap:butt;stroke-linejoin:miter;stroke-opacity:1;enable-background:new"
       id="flowRoot27622-8-7-66-19"
       xml:space="preserve"><flowRegion
         id="flowRegion27624-4-8-4-6"><rect
           y="-8.4147177"
           x="-0.83251446"
           height="58.312714"
           width="282.099"
           id="rect27626-4-6-95-2" /></flowRegion><flowPara
         style="font-style:normal;font-variant:normal;font-weight:normal;font-stretch:normal;font-size:12px;line-height:172.00000286%;font-family:Roboto;-inkscape-font-specification:Roboto;fill:#000000;fill-opacity:0.87058824"
         id="flowPara27628-1-8-0-5">Non renseigné</flowPara></flowRoot>    <rect
       style="display:inline;opacity:1;fill:#000000;fill-opacity:0.11764706;stroke:none;stroke-width:1;stroke-linecap:round;stroke-miterlimit:4;stroke-dasharray:none;stroke-opacity:1;enable-background:new"
       id="rect13518-0-4-4"
       width="837.26794"
       height="0.99990845"
       x="297.7655"
       y="1016.2172" />
    <flowRoot
       transform="translate(345.35383,982.0693)"
       style="font-style:normal;font-variant:normal;font-weight:normal;font-stretch:normal;font-size:17.80747032px;line-height:125%;font-family:Roboto;-inkscape-font-specification:Roboto;text-align:start;letter-spacing:0px;word-spacing:0px;writing-mode:lr-tb;text-anchor:start;display:inline;fill:#000000;fill-opacity:0.87058824;stroke:none;stroke-width:1px;stroke-linecap:butt;stroke-linejoin:miter;stroke-opacity:1;enable-background:new"
       id="flowRoot27622-8-87-49"
       xml:space="preserve"><flowRegion
         id="flowRegion27624-4-1-9"><rect
           y="-8.4147177"
           x="-0.83251446"
           height="58.312714"
           width="282.099"
           id="rect27626-4-7-36" /></flowRegion><flowPara
         style="font-style:normal;font-variant:normal;font-weight:normal;font-stretch:normal;font-size:12px;line-height:172.00000286%;font-family:Roboto;-inkscape-font-specification:Roboto;fill:#000000;fill-opacity:0.87058824"
         id="flowPara27628-1-2-0">Attente retour 2</flowPara></flowRoot>    <flowRoot
       transform="translate(489.10183,982.2527)"
       style="font-style:normal;font-variant:normal;font-weight:normal;font-stretch:normal;font-size:17.80747032px;line-height:125%;font-family:Roboto;-inkscape-font-specification:Roboto;text-align:start;letter-spacing:0px;word-spacing:0px;writing-mode:lr-tb;text-anchor:start;display:inline;fill:#000000;fill-opacity:0.87058824;stroke:none;stroke-width:1px;stroke-linecap:butt;stroke-linejoin:miter;stroke-opacity:1;enable-background:new"
       id="flowRoot27622-8-7-7-5"
       xml:space="preserve"><flowRegion
         id="flowRegion27624-4-8-2-0"><rect
           y="-8.4147177"
           x="-0.83251446"
           height="58.312714"
           width="282.099"
           id="rect27626-4-6-2-29" /></flowRegion><flowPara
         style="font-style:normal;font-variant:normal;font-weight:normal;font-stretch:normal;font-size:12px;line-height:172.00000286%;font-family:Roboto;-inkscape-font-specification:Roboto;fill:#000000;fill-opacity:0.87058824"
         id="flowPara27628-1-8-6-4">Attente retour 2</flowPara></flowRoot>    <flowRoot
       transform="translate(619.04878,974.3497)"
       style="font-style:normal;font-variant:normal;font-weight:normal;font-stretch:normal;font-size:17.80747032px;line-height:125%;font-family:Roboto;-inkscape-font-specification:Roboto;text-align:start;letter-spacing:0px;word-spacing:0px;writing-mode:lr-tb;text-anchor:start;display:inline;fill:#000000;fill-opacity:0.87058824;stroke:none;stroke-width:1px;stroke-linecap:butt;stroke-linejoin:miter;stroke-opacity:1;enable-background:new"
       id="flowRoot27622-8-8-1-3"
       xml:space="preserve"><flowRegion
         id="flowRegion27624-4-4-0-5"><rect
           y="-8.4147177"
           x="-0.83251446"
           height="55.282253"
           width="250.78427"
           id="rect27626-4-3-6-1" /></flowRegion><flowPara
         style="font-style:normal;font-variant:normal;font-weight:normal;font-stretch:normal;font-size:12px;line-height:172.00000286%;font-family:Roboto;-inkscape-font-specification:Roboto;fill:#000000;fill-opacity:0.87058824"
         id="flowPara27628-1-1-1-74">VDS GC : SECTEUR SOLIGNAC LYAUTEY - COMPLÉMENT MISSION</flowPara></flowRoot>    <flowRoot
       transform="translate(874.86466,982.3497)"
       style="font-style:normal;font-variant:normal;font-weight:normal;font-stretch:normal;font-size:17.80747032px;line-height:125%;font-family:Roboto;-inkscape-font-specification:Roboto;text-align:start;letter-spacing:0px;word-spacing:0px;writing-mode:lr-tb;text-anchor:start;display:inline;fill:#000000;fill-opacity:0.87058824;stroke:none;stroke-width:1px;stroke-linecap:butt;stroke-linejoin:miter;stroke-opacity:1;enable-background:new"
       id="flowRoot27622-8-7-6-5-3"
       xml:space="preserve"><flowRegion
         id="flowRegion27624-4-8-8-9-1"><rect
           y="-8.4147177"
           x="-0.83251446"
           height="58.312714"
           width="282.099"
           id="rect27626-4-6-9-4-46" /></flowRegion><flowPara
         style="font-style:normal;font-variant:normal;font-weight:normal;font-stretch:normal;font-size:12px;line-height:172.00000286%;font-family:Roboto;-inkscape-font-specification:Roboto;fill:#000000;fill-opacity:0.87058824"
         id="flowPara27628-1-8-2-9-9">GRASSER Brigitte</flowPara></flowRoot>    <flowRoot
       transform="translate(1015.5791,982.1354)"
       style="font-style:normal;font-variant:normal;font-weight:normal;font-stretch:normal;font-size:17.80747032px;line-height:125%;font-family:Roboto;-inkscape-font-specification:Roboto;text-align:start;letter-spacing:0px;word-spacing:0px;writing-mode:lr-tb;text-anchor:start;display:inline;fill:#000000;fill-opacity:0.87058824;stroke:none;stroke-width:1px;stroke-linecap:butt;stroke-linejoin:miter;stroke-opacity:1;enable-background:new"
       id="flowRoot27622-8-7-66-0-42"
       xml:space="preserve"><flowRegion
         id="flowRegion27624-4-8-4-9-2"><rect
           y="-8.4147177"
           x="-0.83251446"
           height="58.312714"
           width="282.099"
           id="rect27626-4-6-95-1-6" /></flowRegion><flowPara
         style="font-style:normal;font-variant:normal;font-weight:normal;font-stretch:normal;font-size:12px;line-height:172.00000286%;font-family:Roboto;-inkscape-font-specification:Roboto;fill:#000000;fill-opacity:0.87058824"
         id="flowPara27628-1-8-0-7-41">DIDIER Jean-Louis</flowPara></flowRoot>    <rect
       style="display:inline;opacity:1;fill:#000000;fill-opacity:0.11764706;stroke:none;stroke-width:1;stroke-linecap:round;stroke-miterlimit:4;stroke-dasharray:none;stroke-opacity:1;enable-background:new"
       id="rect13518-1-2"
       width="837.71429"
       height="0.99990845"
       x="297.41351"
       y="958.09991" />
    <g
       transform="translate(-2248.2857,2921.8571)"
       style="display:inline;enable-background:new"
       id="g6122">
      <rect
         style="fill:#000000;fill-opacity:0.78431373;stroke:none"
         id="rect6032"
         width="360"
         height="56.000038"
         x="2784"
         y="-1917.6378" />
      <flowRoot
         xml:space="preserve"
         id="flowRoot6034"
         style="font-style:normal;font-variant:normal;font-weight:normal;font-stretch:normal;font-size:17.80747032px;line-height:125%;font-family:Roboto;-inkscape-font-specification:Roboto;text-align:start;letter-spacing:0px;word-spacing:0px;writing-mode:lr-tb;text-anchor:start;display:inline;fill:#000000;fill-opacity:1;stroke:none;stroke-width:1px;stroke-linecap:butt;stroke-linejoin:miter;stroke-opacity:1"
         transform="translate(2808.832,-1892.9621)"><flowRegion
           id="flowRegion6036"><rect
             id="rect6038"
             width="328.00052"
             height="63.064022"
             x="-0.83251446"
             y="-8.4147177" /></flowRegion><flowPara
           style="font-style:normal;font-variant:normal;font-weight:normal;font-stretch:normal;font-size:14px;line-height:141.99999571%;font-family:Roboto;-inkscape-font-specification:Roboto;fill:#ffffff;fill-opacity:1"
           id="flowPara6042">Vous êtes connecté.</flowPara></flowRoot>      <g
         transform="translate(-338,2297.9999)"
         style="display:inline"
         id="g5977-5-9">
        <rect
           ry="2"
           rx="2"
           y="-4205.6377"
           x="3392"
           height="36"
           width="80"
           id="rect5979-5-7"
           style="opacity:1;fill:#000000;fill-opacity:0;stroke:none;stroke-width:1;stroke-linecap:round;stroke-miterlimit:4;stroke-dasharray:1, 3;stroke-dashoffset:0;stroke-opacity:0.22352941" />
        <flowRoot
           style="font-style:normal;font-variant:normal;font-weight:500;font-stretch:normal;font-size:17.95415497px;line-height:125%;font-family:Roboto;-inkscape-font-specification:'Roboto, Medium';text-align:start;letter-spacing:0px;word-spacing:0px;writing-mode:lr-tb;text-anchor:start;display:inline;fill:#80cbc4;fill-opacity:0.87058824;stroke:none;stroke-width:1px;stroke-linecap:butt;stroke-linejoin:miter;stroke-opacity:1"
           id="flowRoot5981-4-2"
           xml:space="preserve"
           transform="translate(3339.2744,-4192.697)"><flowRegion
             id="flowRegion5983-1-5"><rect
               y="-3.7940509"
               x="-0.12398586"
               height="82.076134"
               width="185.69725"
               id="rect5985-9-1"
               style="fill:#80cbc4;fill-opacity:0.87058824" /></flowRegion><flowPara
             style="font-size:14px;text-align:center;text-anchor:middle;fill:#80cbc4;fill-opacity:0.87058824"
             id="flowPara5987-5-1">FERMER</flowPara></flowRoot>      </g>
    </g>
  </g>
</svg>
